,Acquisition,Subject,Session,Task,Run,Contrast,Path,Mean DR t,Median DR t,Processing,Template,Uid
0,EPIlowcov,4001,ofM,JogB,0,T2w+BOLD,/home/chymera/.scratch/irsabi/l1/generic/sub-4001/ses-ofM/sub-4001_ses-ofM_task-JogB_acq-EPIlowcov_run-0_bold_tstat.nii.gz,-0.1848859339952469,-0.2148195505142212,Generic,Generic,4001_ofM_bold
1,EPIlowcov,4001,ofM,JogB,1,T2w+CBV,/home/chymera/.scratch/irsabi/l1/generic/sub-4001/ses-ofM/sub-4001_ses-ofM_task-JogB_acq-EPIlowcov_run-1_cbv_tstat.nii.gz,-0.34508052468299866,-0.3680809736251831,Generic,Generic,4001_ofM_cbv
2,EPIlowcov,4001,ofMaF,JogB,0,T2w+BOLD,/home/chymera/.scratch/irsabi/l1/generic/sub-4001/ses-ofMaF/sub-4001_ses-ofMaF_task-JogB_acq-EPIlowcov_run-0_bold_tstat.nii.gz,-1.5110572576522827,-1.0979421138763428,Generic,Generic,4001_ofMaF_bold
3,EPIlowcov,4001,ofMaF,JogB,1,T2w+CBV,/home/chymera/.scratch/irsabi/l1/generic/sub-4001/ses-ofMaF/sub-4001_ses-ofMaF_task-JogB_acq-EPIlowcov_run-1_cbv_tstat.nii.gz,0.09397510439157486,0.3280469477176666,Generic,Generic,4001_ofMaF_cbv
4,EPIlowcov,4001,ofMcF1,JogB,0,T2w+BOLD,/home/chymera/.scratch/irsabi/l1/generic/sub-4001/ses-ofMcF1/sub-4001_ses-ofMcF1_task-JogB_acq-EPIlowcov_run-0_bold_tstat.nii.gz,-2.1007816791534424,-2.288322925567627,Generic,Generic,4001_ofMcF1_bold
5,EPIlowcov,4001,ofMcF1,JogB,1,T2w+CBV,/home/chymera/.scratch/irsabi/l1/generic/sub-4001/ses-ofMcF1/sub-4001_ses-ofMcF1_task-JogB_acq-EPIlowcov_run-1_cbv_tstat.nii.gz,3.1489033699035645,3.6476333141326904,Generic,Generic,4001_ofMcF1_cbv
6,EPIlowcov,4001,ofMcF2,JogB,0,T2w+BOLD,/home/chymera/.scratch/irsabi/l1/generic/sub-4001/ses-ofMcF2/sub-4001_ses-ofMcF2_task-JogB_acq-EPIlowcov_run-0_bold_tstat.nii.gz,-2.3924365043640137,-2.3015823364257812,Generic,Generic,4001_ofMcF2_bold
7,EPIlowcov,4001,ofMcF2,JogB,1,T2w+CBV,/home/chymera/.scratch/irsabi/l1/generic/sub-4001/ses-ofMcF2/sub-4001_ses-ofMcF2_task-JogB_acq-EPIlowcov_run-1_cbv_tstat.nii.gz,1.8893061876296997,1.8605105876922607,Generic,Generic,4001_ofMcF2_cbv
8,EPIlowcov,4002,ofM,JogB,0,T2w+BOLD,/home/chymera/.scratch/irsabi/l1/generic/sub-4002/ses-ofM/sub-4002_ses-ofM_task-JogB_acq-EPIlowcov_run-0_bold_tstat.nii.gz,0.4825162887573242,0.48445361852645874,Generic,Generic,4002_ofM_bold
9,EPIlowcov,4002,ofM,JogB,1,T2w+CBV,/home/chymera/.scratch/irsabi/l1/generic/sub-4002/ses-ofM/sub-4002_ses-ofM_task-JogB_acq-EPIlowcov_run-1_cbv_tstat.nii.gz,0.6554362177848816,1.1176338195800781,Generic,Generic,4002_ofM_cbv
10,EPIlowcov,4004,ofM,JogB,0,T2w+BOLD,/home/chymera/.scratch/irsabi/l1/generic/sub-4004/ses-ofM/sub-4004_ses-ofM_task-JogB_acq-EPIlowcov_run-0_bold_tstat.nii.gz,-1.0440576076507568,-1.5130674839019775,Generic,Generic,4004_ofM_bold
11,EPIlowcov,4004,ofM,JogB,1,T2w+CBV,/home/chymera/.scratch/irsabi/l1/generic/sub-4004/ses-ofM/sub-4004_ses-ofM_task-JogB_acq-EPIlowcov_run-1_cbv_tstat.nii.gz,2.8849246501922607,3.0955069065093994,Generic,Generic,4004_ofM_cbv
12,EPIlowcov,4005,ofM,JogB,0,T2w+BOLD,/home/chymera/.scratch/irsabi/l1/generic/sub-4005/ses-ofM/sub-4005_ses-ofM_task-JogB_acq-EPIlowcov_run-0_bold_tstat.nii.gz,-0.30448052287101746,-0.7036726474761963,Generic,Generic,4005_ofM_bold
13,EPIlowcov,4005,ofM,JogB,1,T2w+CBV,/home/chymera/.scratch/irsabi/l1/generic/sub-4005/ses-ofM/sub-4005_ses-ofM_task-JogB_acq-EPIlowcov_run-1_cbv_tstat.nii.gz,1.9539037942886353,1.838019609451294,Generic,Generic,4005_ofM_cbv
14,EPIlowcov,4005,ofMaF,JogB,0,T2w+BOLD,/home/chymera/.scratch/irsabi/l1/generic/sub-4005/ses-ofMaF/sub-4005_ses-ofMaF_task-JogB_acq-EPIlowcov_run-0_bold_tstat.nii.gz,-1.4711699485778809,-1.2815062999725342,Generic,Generic,4005_ofMaF_bold
15,EPIlowcov,4005,ofMaF,JogB,1,T2w+CBV,/home/chymera/.scratch/irsabi/l1/generic/sub-4005/ses-ofMaF/sub-4005_ses-ofMaF_task-JogB_acq-EPIlowcov_run-1_cbv_tstat.nii.gz,-0.870577871799469,-1.190159559249878,Generic,Generic,4005_ofMaF_cbv
16,EPIlowcov,4006,ofM,JogB,0,T2w+BOLD,/home/chymera/.scratch/irsabi/l1/generic/sub-4006/ses-ofM/sub-4006_ses-ofM_task-JogB_acq-EPIlowcov_run-0_bold_tstat.nii.gz,0.10106490552425385,0.0,Generic,Generic,4006_ofM_bold
17,EPIlowcov,4006,ofM,JogB,1,T2w+CBV,/home/chymera/.scratch/irsabi/l1/generic/sub-4006/ses-ofM/sub-4006_ses-ofM_task-JogB_acq-EPIlowcov_run-1_cbv_tstat.nii.gz,-0.048328716307878494,0.0,Generic,Generic,4006_ofM_cbv
18,EPIlowcov,4007,ofM,JogB,0,T2w+BOLD,/home/chymera/.scratch/irsabi/l1/generic/sub-4007/ses-ofM/sub-4007_ses-ofM_task-JogB_acq-EPIlowcov_run-0_bold_tstat.nii.gz,0.528772234916687,0.4261552095413208,Generic,Generic,4007_ofM_bold
19,EPIlowcov,4007,ofM,JogB,1,T2w+CBV,/home/chymera/.scratch/irsabi/l1/generic/sub-4007/ses-ofM/sub-4007_ses-ofM_task-JogB_acq-EPIlowcov_run-1_cbv_tstat.nii.gz,2.28532075881958,2.497875452041626,Generic,Generic,4007_ofM_cbv
20,EPIlowcov,4007,ofMaF,JogB,0,T2w+BOLD,/home/chymera/.scratch/irsabi/l1/generic/sub-4007/ses-ofMaF/sub-4007_ses-ofMaF_task-JogB_acq-EPIlowcov_run-0_bold_tstat.nii.gz,0.9453467130661011,0.9053280353546143,Generic,Generic,4007_ofMaF_bold
21,EPIlowcov,4007,ofMaF,JogB,1,T2w+CBV,/home/chymera/.scratch/irsabi/l1/generic/sub-4007/ses-ofMaF/sub-4007_ses-ofMaF_task-JogB_acq-EPIlowcov_run-1_cbv_tstat.nii.gz,1.6927061080932617,1.3905487060546875,Generic,Generic,4007_ofMaF_cbv
22,EPIlowcov,4007,ofMcF1,JogB,0,T2w+BOLD,/home/chymera/.scratch/irsabi/l1/generic/sub-4007/ses-ofMcF1/sub-4007_ses-ofMcF1_task-JogB_acq-EPIlowcov_run-0_bold_tstat.nii.gz,1.2869369983673096,1.1308515071868896,Generic,Generic,4007_ofMcF1_bold
23,EPIlowcov,4007,ofMcF1,JogB,1,T2w+CBV,/home/chymera/.scratch/irsabi/l1/generic/sub-4007/ses-ofMcF1/sub-4007_ses-ofMcF1_task-JogB_acq-EPIlowcov_run-1_cbv_tstat.nii.gz,-0.4924914538860321,-0.4211282432079315,Generic,Generic,4007_ofMcF1_cbv
24,EPIlowcov,4007,ofMcF2,JogB,0,T2w+BOLD,/home/chymera/.scratch/irsabi/l1/generic/sub-4007/ses-ofMcF2/sub-4007_ses-ofMcF2_task-JogB_acq-EPIlowcov_run-0_bold_tstat.nii.gz,0.7504897713661194,0.7843073010444641,Generic,Generic,4007_ofMcF2_bold
25,EPIlowcov,4007,ofMcF2,JogB,1,T2w+CBV,/home/chymera/.scratch/irsabi/l1/generic/sub-4007/ses-ofMcF2/sub-4007_ses-ofMcF2_task-JogB_acq-EPIlowcov_run-1_cbv_tstat.nii.gz,2.796405076980591,2.7937917709350586,Generic,Generic,4007_ofMcF2_cbv
26,EPIlowcov,4007,ofMpF,JogB,0,T2w+BOLD,/home/chymera/.scratch/irsabi/l1/generic/sub-4007/ses-ofMpF/sub-4007_ses-ofMpF_task-JogB_acq-EPIlowcov_run-0_bold_tstat.nii.gz,0.28518739342689514,-0.2131131887435913,Generic,Generic,4007_ofMpF_bold
27,EPIlowcov,4007,ofMpF,JogB,1,T2w+CBV,/home/chymera/.scratch/irsabi/l1/generic/sub-4007/ses-ofMpF/sub-4007_ses-ofMpF_task-JogB_acq-EPIlowcov_run-1_cbv_tstat.nii.gz,0.7370402216911316,0.7397100925445557,Generic,Generic,4007_ofMpF_cbv
28,EPIlowcov,4008,ofM,JogB,0,T2w+BOLD,/home/chymera/.scratch/irsabi/l1/generic/sub-4008/ses-ofM/sub-4008_ses-ofM_task-JogB_acq-EPIlowcov_run-0_bold_tstat.nii.gz,-1.4756170511245728,-1.4159233570098877,Generic,Generic,4008_ofM_bold
29,EPIlowcov,4008,ofM,JogB,1,T2w+CBV,/home/chymera/.scratch/irsabi/l1/generic/sub-4008/ses-ofM/sub-4008_ses-ofM_task-JogB_acq-EPIlowcov_run-1_cbv_tstat.nii.gz,-0.024243377149105072,-0.05805540084838867,Generic,Generic,4008_ofM_cbv
30,EPIlowcov,4008,ofMaF,JogB,0,T2w+BOLD,/home/chymera/.scratch/irsabi/l1/generic/sub-4008/ses-ofMaF/sub-4008_ses-ofMaF_task-JogB_acq-EPIlowcov_run-0_bold_tstat.nii.gz,-0.9056097865104675,-0.8762062788009644,Generic,Generic,4008_ofMaF_bold
31,EPIlowcov,4008,ofMaF,JogB,1,T2w+CBV,/home/chymera/.scratch/irsabi/l1/generic/sub-4008/ses-ofMaF/sub-4008_ses-ofMaF_task-JogB_acq-EPIlowcov_run-1_cbv_tstat.nii.gz,1.879380702972412,2.168095111846924,Generic,Generic,4008_ofMaF_cbv
32,EPIlowcov,4008,ofMcF1,JogB,0,T2w+BOLD,/home/chymera/.scratch/irsabi/l1/generic/sub-4008/ses-ofMcF1/sub-4008_ses-ofMcF1_task-JogB_acq-EPIlowcov_run-0_bold_tstat.nii.gz,-0.5558464527130127,-0.5604462027549744,Generic,Generic,4008_ofMcF1_bold
33,EPIlowcov,4008,ofMcF1,JogB,1,T2w+CBV,/home/chymera/.scratch/irsabi/l1/generic/sub-4008/ses-ofMcF1/sub-4008_ses-ofMcF1_task-JogB_acq-EPIlowcov_run-1_cbv_tstat.nii.gz,0.8090964555740356,0.8379874229431152,Generic,Generic,4008_ofMcF1_cbv
34,EPIlowcov,4008,ofMcF2,JogB,0,T2w+BOLD,/home/chymera/.scratch/irsabi/l1/generic/sub-4008/ses-ofMcF2/sub-4008_ses-ofMcF2_task-JogB_acq-EPIlowcov_run-0_bold_tstat.nii.gz,-5.070695400238037,-5.004559516906738,Generic,Generic,4008_ofMcF2_bold
35,EPIlowcov,4008,ofMcF2,JogB,1,T2w+CBV,/home/chymera/.scratch/irsabi/l1/generic/sub-4008/ses-ofMcF2/sub-4008_ses-ofMcF2_task-JogB_acq-EPIlowcov_run-1_cbv_tstat.nii.gz,3.5617711544036865,3.207188367843628,Generic,Generic,4008_ofMcF2_cbv
36,EPIlowcov,4008,ofMpF,JogB,0,T2w+BOLD,/home/chymera/.scratch/irsabi/l1/generic/sub-4008/ses-ofMpF/sub-4008_ses-ofMpF_task-JogB_acq-EPIlowcov_run-0_bold_tstat.nii.gz,0.5808261036872864,0.5527178645133972,Generic,Generic,4008_ofMpF_bold
37,EPIlowcov,4008,ofMpF,JogB,1,T2w+CBV,/home/chymera/.scratch/irsabi/l1/generic/sub-4008/ses-ofMpF/sub-4008_ses-ofMpF_task-JogB_acq-EPIlowcov_run-1_cbv_tstat.nii.gz,0.7291316986083984,0.814379096031189,Generic,Generic,4008_ofMpF_cbv
38,EPIlowcov,4009,ofM,JogB,0,T2w+BOLD,/home/chymera/.scratch/irsabi/l1/generic/sub-4009/ses-ofM/sub-4009_ses-ofM_task-JogB_acq-EPIlowcov_run-0_bold_tstat.nii.gz,-0.42854544520378113,-0.6095440983772278,Generic,Generic,4009_ofM_bold
39,EPIlowcov,4009,ofM,JogB,1,T2w+CBV,/home/chymera/.scratch/irsabi/l1/generic/sub-4009/ses-ofM/sub-4009_ses-ofM_task-JogB_acq-EPIlowcov_run-1_cbv_tstat.nii.gz,2.0804333686828613,1.897017478942871,Generic,Generic,4009_ofM_cbv
40,EPIlowcov,4009,ofMaF,JogB,0,T2w+BOLD,/home/chymera/.scratch/irsabi/l1/generic/sub-4009/ses-ofMaF/sub-4009_ses-ofMaF_task-JogB_acq-EPIlowcov_run-0_bold_tstat.nii.gz,0.19241078197956085,0.06260589510202408,Generic,Generic,4009_ofMaF_bold
41,EPIlowcov,4009,ofMaF,JogB,1,T2w+CBV,/home/chymera/.scratch/irsabi/l1/generic/sub-4009/ses-ofMaF/sub-4009_ses-ofMaF_task-JogB_acq-EPIlowcov_run-1_cbv_tstat.nii.gz,-1.4037314653396606,-1.2632759809494019,Generic,Generic,4009_ofMaF_cbv
42,EPIlowcov,4009,ofMcF1,JogB,0,T2w+BOLD,/home/chymera/.scratch/irsabi/l1/generic/sub-4009/ses-ofMcF1/sub-4009_ses-ofMcF1_task-JogB_acq-EPIlowcov_run-0_bold_tstat.nii.gz,-1.6608664989471436,-2.1795504093170166,Generic,Generic,4009_ofMcF1_bold
43,EPIlowcov,4009,ofMcF1,JogB,1,T2w+CBV,/home/chymera/.scratch/irsabi/l1/generic/sub-4009/ses-ofMcF1/sub-4009_ses-ofMcF1_task-JogB_acq-EPIlowcov_run-1_cbv_tstat.nii.gz,0.47587066888809204,0.46318960189819336,Generic,Generic,4009_ofMcF1_cbv
44,EPIlowcov,4009,ofMcF2,JogB,0,T2w+BOLD,/home/chymera/.scratch/irsabi/l1/generic/sub-4009/ses-ofMcF2/sub-4009_ses-ofMcF2_task-JogB_acq-EPIlowcov_run-0_bold_tstat.nii.gz,-4.443994998931885,-4.658421516418457,Generic,Generic,4009_ofMcF2_bold
45,EPIlowcov,4009,ofMcF2,JogB,1,T2w+CBV,/home/chymera/.scratch/irsabi/l1/generic/sub-4009/ses-ofMcF2/sub-4009_ses-ofMcF2_task-JogB_acq-EPIlowcov_run-1_cbv_tstat.nii.gz,1.65633225440979,1.7646918296813965,Generic,Generic,4009_ofMcF2_cbv
46,EPIlowcov,4009,ofMpF,JogB,0,T2w+BOLD,/home/chymera/.scratch/irsabi/l1/generic/sub-4009/ses-ofMpF/sub-4009_ses-ofMpF_task-JogB_acq-EPIlowcov_run-0_bold_tstat.nii.gz,-0.6217785477638245,-0.4563070237636566,Generic,Generic,4009_ofMpF_bold
47,EPIlowcov,4009,ofMpF,JogB,1,T2w+CBV,/home/chymera/.scratch/irsabi/l1/generic/sub-4009/ses-ofMpF/sub-4009_ses-ofMpF_task-JogB_acq-EPIlowcov_run-1_cbv_tstat.nii.gz,-0.23367159068584442,-0.2580876052379608,Generic,Generic,4009_ofMpF_cbv
48,EPIlowcov,4011,ofM,JogB,0,T2w+BOLD,/home/chymera/.scratch/irsabi/l1/generic/sub-4011/ses-ofM/sub-4011_ses-ofM_task-JogB_acq-EPIlowcov_run-0_bold_tstat.nii.gz,-1.1543998718261719,-0.7922906875610352,Generic,Generic,4011_ofM_bold
49,EPIlowcov,4011,ofM,JogB,1,T2w+CBV,/home/chymera/.scratch/irsabi/l1/generic/sub-4011/ses-ofM/sub-4011_ses-ofM_task-JogB_acq-EPIlowcov_run-1_cbv_tstat.nii.gz,1.2801687717437744,1.051318645477295,Generic,Generic,4011_ofM_cbv
50,EPIlowcov,4011,ofMaF,JogB,0,T2w+BOLD,/home/chymera/.scratch/irsabi/l1/generic/sub-4011/ses-ofMaF/sub-4011_ses-ofMaF_task-JogB_acq-EPIlowcov_run-0_bold_tstat.nii.gz,-1.3355226516723633,-1.7915287017822266,Generic,Generic,4011_ofMaF_bold
51,EPIlowcov,4011,ofMaF,JogB,1,T2w+CBV,/home/chymera/.scratch/irsabi/l1/generic/sub-4011/ses-ofMaF/sub-4011_ses-ofMaF_task-JogB_acq-EPIlowcov_run-1_cbv_tstat.nii.gz,0.6063817739486694,0.2667350172996521,Generic,Generic,4011_ofMaF_cbv
52,EPIlowcov,4011,ofMcF1,JogB,0,T2w+BOLD,/home/chymera/.scratch/irsabi/l1/generic/sub-4011/ses-ofMcF1/sub-4011_ses-ofMcF1_task-JogB_acq-EPIlowcov_run-0_bold_tstat.nii.gz,-0.0431491918861866,-0.1965974122285843,Generic,Generic,4011_ofMcF1_bold
53,EPIlowcov,4011,ofMcF1,JogB,1,T2w+CBV,/home/chymera/.scratch/irsabi/l1/generic/sub-4011/ses-ofMcF1/sub-4011_ses-ofMcF1_task-JogB_acq-EPIlowcov_run-1_cbv_tstat.nii.gz,1.177214503288269,0.5437387228012085,Generic,Generic,4011_ofMcF1_cbv
54,EPIlowcov,4011,ofMcF2,JogB,0,T2w+BOLD,/home/chymera/.scratch/irsabi/l1/generic/sub-4011/ses-ofMcF2/sub-4011_ses-ofMcF2_task-JogB_acq-EPIlowcov_run-0_bold_tstat.nii.gz,-2.2869739532470703,-2.5260748863220215,Generic,Generic,4011_ofMcF2_bold
55,EPIlowcov,4011,ofMcF2,JogB,1,T2w+CBV,/home/chymera/.scratch/irsabi/l1/generic/sub-4011/ses-ofMcF2/sub-4011_ses-ofMcF2_task-JogB_acq-EPIlowcov_run-1_cbv_tstat.nii.gz,2.430495023727417,2.4525673389434814,Generic,Generic,4011_ofMcF2_cbv
56,EPIlowcov,4012,ofM,JogB,0,T2w+BOLD,/home/chymera/.scratch/irsabi/l1/generic/sub-4012/ses-ofM/sub-4012_ses-ofM_task-JogB_acq-EPIlowcov_run-0_bold_tstat.nii.gz,-0.9125053882598877,-1.0040909051895142,Generic,Generic,4012_ofM_bold
57,EPIlowcov,4012,ofM,JogB,1,T2w+CBV,/home/chymera/.scratch/irsabi/l1/generic/sub-4012/ses-ofM/sub-4012_ses-ofM_task-JogB_acq-EPIlowcov_run-1_cbv_tstat.nii.gz,2.1270618438720703,2.3612313270568848,Generic,Generic,4012_ofM_cbv
58,EPIlowcov,4012,ofMaF,JogB,0,T2w+BOLD,/home/chymera/.scratch/irsabi/l1/generic/sub-4012/ses-ofMaF/sub-4012_ses-ofMaF_task-JogB_acq-EPIlowcov_run-0_bold_tstat.nii.gz,0.9272712469100952,0.954950213432312,Generic,Generic,4012_ofMaF_bold
59,EPIlowcov,4012,ofMaF,JogB,1,T2w+CBV,/home/chymera/.scratch/irsabi/l1/generic/sub-4012/ses-ofMaF/sub-4012_ses-ofMaF_task-JogB_acq-EPIlowcov_run-1_cbv_tstat.nii.gz,-0.003799762111157179,-0.09194666147232056,Generic,Generic,4012_ofMaF_cbv
60,EPIlowcov,4012,ofMcF1,JogB,0,T2w+BOLD,/home/chymera/.scratch/irsabi/l1/generic/sub-4012/ses-ofMcF1/sub-4012_ses-ofMcF1_task-JogB_acq-EPIlowcov_run-0_bold_tstat.nii.gz,-0.8873676061630249,-0.9309844970703125,Generic,Generic,4012_ofMcF1_bold
61,EPIlowcov,4012,ofMcF1,JogB,1,T2w+CBV,/home/chymera/.scratch/irsabi/l1/generic/sub-4012/ses-ofMcF1/sub-4012_ses-ofMcF1_task-JogB_acq-EPIlowcov_run-1_cbv_tstat.nii.gz,0.507304847240448,0.5400724411010742,Generic,Generic,4012_ofMcF1_cbv
62,EPIlowcov,4012,ofMcF2,JogB,0,T2w+BOLD,/home/chymera/.scratch/irsabi/l1/generic/sub-4012/ses-ofMcF2/sub-4012_ses-ofMcF2_task-JogB_acq-EPIlowcov_run-0_bold_tstat.nii.gz,6.241944313049316,6.536503314971924,Generic,Generic,4012_ofMcF2_bold
63,EPIlowcov,4012,ofMcF2,JogB,1,T2w+CBV,/home/chymera/.scratch/irsabi/l1/generic/sub-4012/ses-ofMcF2/sub-4012_ses-ofMcF2_task-JogB_acq-EPIlowcov_run-1_cbv_tstat.nii.gz,-0.1299823522567749,-0.5899326801300049,Generic,Generic,4012_ofMcF2_cbv
64,EPIlowcov,4012,ofMpF,JogB,0,T2w+BOLD,/home/chymera/.scratch/irsabi/l1/generic/sub-4012/ses-ofMpF/sub-4012_ses-ofMpF_task-JogB_acq-EPIlowcov_run-0_bold_tstat.nii.gz,-0.7517571449279785,-0.8984134197235107,Generic,Generic,4012_ofMpF_bold
65,EPIlowcov,4012,ofMpF,JogB,1,T2w+CBV,/home/chymera/.scratch/irsabi/l1/generic/sub-4012/ses-ofMpF/sub-4012_ses-ofMpF_task-JogB_acq-EPIlowcov_run-1_cbv_tstat.nii.gz,1.7435840368270874,1.1213316917419434,Generic,Generic,4012_ofMpF_cbv
66,EPIlowcov,4013,ofM,JogB,0,T2w+BOLD,/home/chymera/.scratch/irsabi/l1/generic/sub-4013/ses-ofM/sub-4013_ses-ofM_task-JogB_acq-EPIlowcov_run-0_bold_tstat.nii.gz,-0.3574916124343872,-0.5225501656532288,Generic,Generic,4013_ofM_bold
67,EPIlowcov,4013,ofM,JogB,1,T2w+CBV,/home/chymera/.scratch/irsabi/l1/generic/sub-4013/ses-ofM/sub-4013_ses-ofM_task-JogB_acq-EPIlowcov_run-1_cbv_tstat.nii.gz,-0.3084232211112976,-0.1335747092962265,Generic,Generic,4013_ofM_cbv
0,EPIlowcov,4001,ofM,JogB,0,T2w+BOLD,/home/chymera/.scratch/irsabi/l1/generic_ambmc/sub-4001/ses-ofM/sub-4001_ses-ofM_task-JogB_acq-EPIlowcov_run-0_bold_tstat.nii.gz,-0.4375211298465729,-0.3254076838493347,Generic,Legacy,4001_ofM_bold
1,EPIlowcov,4001,ofM,JogB,1,T2w+CBV,/home/chymera/.scratch/irsabi/l1/generic_ambmc/sub-4001/ses-ofM/sub-4001_ses-ofM_task-JogB_acq-EPIlowcov_run-1_cbv_tstat.nii.gz,-0.4121320843696594,-0.7197591066360474,Generic,Legacy,4001_ofM_cbv
2,EPIlowcov,4001,ofMaF,JogB,0,T2w+BOLD,/home/chymera/.scratch/irsabi/l1/generic_ambmc/sub-4001/ses-ofMaF/sub-4001_ses-ofMaF_task-JogB_acq-EPIlowcov_run-0_bold_tstat.nii.gz,-1.4500951766967773,-1.42312490940094,Generic,Legacy,4001_ofMaF_bold
3,EPIlowcov,4001,ofMaF,JogB,1,T2w+CBV,/home/chymera/.scratch/irsabi/l1/generic_ambmc/sub-4001/ses-ofMaF/sub-4001_ses-ofMaF_task-JogB_acq-EPIlowcov_run-1_cbv_tstat.nii.gz,0.07730288803577423,0.1633676290512085,Generic,Legacy,4001_ofMaF_cbv
4,EPIlowcov,4001,ofMcF1,JogB,0,T2w+BOLD,/home/chymera/.scratch/irsabi/l1/generic_ambmc/sub-4001/ses-ofMcF1/sub-4001_ses-ofMcF1_task-JogB_acq-EPIlowcov_run-0_bold_tstat.nii.gz,-1.6716171503067017,-1.603230357170105,Generic,Legacy,4001_ofMcF1_bold
5,EPIlowcov,4001,ofMcF1,JogB,1,T2w+CBV,/home/chymera/.scratch/irsabi/l1/generic_ambmc/sub-4001/ses-ofMcF1/sub-4001_ses-ofMcF1_task-JogB_acq-EPIlowcov_run-1_cbv_tstat.nii.gz,2.8888564109802246,3.286121368408203,Generic,Legacy,4001_ofMcF1_cbv
6,EPIlowcov,4001,ofMcF2,JogB,0,T2w+BOLD,/home/chymera/.scratch/irsabi/l1/generic_ambmc/sub-4001/ses-ofMcF2/sub-4001_ses-ofMcF2_task-JogB_acq-EPIlowcov_run-0_bold_tstat.nii.gz,-1.959430456161499,-1.8120548725128174,Generic,Legacy,4001_ofMcF2_bold
7,EPIlowcov,4001,ofMcF2,JogB,1,T2w+CBV,/home/chymera/.scratch/irsabi/l1/generic_ambmc/sub-4001/ses-ofMcF2/sub-4001_ses-ofMcF2_task-JogB_acq-EPIlowcov_run-1_cbv_tstat.nii.gz,1.9112685918807983,1.8587769269943237,Generic,Legacy,4001_ofMcF2_cbv
8,EPIlowcov,4002,ofM,JogB,0,T2w+BOLD,/home/chymera/.scratch/irsabi/l1/generic_ambmc/sub-4002/ses-ofM/sub-4002_ses-ofM_task-JogB_acq-EPIlowcov_run-0_bold_tstat.nii.gz,0.48749443888664246,0.345185250043869,Generic,Legacy,4002_ofM_bold
9,EPIlowcov,4002,ofM,JogB,1,T2w+CBV,/home/chymera/.scratch/irsabi/l1/generic_ambmc/sub-4002/ses-ofM/sub-4002_ses-ofM_task-JogB_acq-EPIlowcov_run-1_cbv_tstat.nii.gz,0.8586042523384094,1.1345314979553223,Generic,Legacy,4002_ofM_cbv
10,EPIlowcov,4004,ofM,JogB,0,T2w+BOLD,/home/chymera/.scratch/irsabi/l1/generic_ambmc/sub-4004/ses-ofM/sub-4004_ses-ofM_task-JogB_acq-EPIlowcov_run-0_bold_tstat.nii.gz,-1.904811143875122,-1.9372024536132812,Generic,Legacy,4004_ofM_bold
11,EPIlowcov,4004,ofM,JogB,1,T2w+CBV,/home/chymera/.scratch/irsabi/l1/generic_ambmc/sub-4004/ses-ofM/sub-4004_ses-ofM_task-JogB_acq-EPIlowcov_run-1_cbv_tstat.nii.gz,1.3026188611984253,1.849560022354126,Generic,Legacy,4004_ofM_cbv
12,EPIlowcov,4005,ofM,JogB,0,T2w+BOLD,/home/chymera/.scratch/irsabi/l1/generic_ambmc/sub-4005/ses-ofM/sub-4005_ses-ofM_task-JogB_acq-EPIlowcov_run-0_bold_tstat.nii.gz,-3.1654489040374756,-3.2615466117858887,Generic,Legacy,4005_ofM_bold
13,EPIlowcov,4005,ofM,JogB,1,T2w+CBV,/home/chymera/.scratch/irsabi/l1/generic_ambmc/sub-4005/ses-ofM/sub-4005_ses-ofM_task-JogB_acq-EPIlowcov_run-1_cbv_tstat.nii.gz,1.1387786865234375,1.2489867210388184,Generic,Legacy,4005_ofM_cbv
14,EPIlowcov,4005,ofMaF,JogB,0,T2w+BOLD,/home/chymera/.scratch/irsabi/l1/generic_ambmc/sub-4005/ses-ofMaF/sub-4005_ses-ofMaF_task-JogB_acq-EPIlowcov_run-0_bold_tstat.nii.gz,-1.603682279586792,-1.5074009895324707,Generic,Legacy,4005_ofMaF_bold
15,EPIlowcov,4005,ofMaF,JogB,1,T2w+CBV,/home/chymera/.scratch/irsabi/l1/generic_ambmc/sub-4005/ses-ofMaF/sub-4005_ses-ofMaF_task-JogB_acq-EPIlowcov_run-1_cbv_tstat.nii.gz,-0.5570799112319946,-0.9878588914871216,Generic,Legacy,4005_ofMaF_cbv
16,EPIlowcov,4006,ofM,JogB,0,T2w+BOLD,/home/chymera/.scratch/irsabi/l1/generic_ambmc/sub-4006/ses-ofM/sub-4006_ses-ofM_task-JogB_acq-EPIlowcov_run-0_bold_tstat.nii.gz,0.2286936640739441,0.0,Generic,Legacy,4006_ofM_bold
17,EPIlowcov,4006,ofM,JogB,1,T2w+CBV,/home/chymera/.scratch/irsabi/l1/generic_ambmc/sub-4006/ses-ofM/sub-4006_ses-ofM_task-JogB_acq-EPIlowcov_run-1_cbv_tstat.nii.gz,0.022461164742708206,0.0,Generic,Legacy,4006_ofM_cbv
18,EPIlowcov,4007,ofM,JogB,0,T2w+BOLD,/home/chymera/.scratch/irsabi/l1/generic_ambmc/sub-4007/ses-ofM/sub-4007_ses-ofM_task-JogB_acq-EPIlowcov_run-0_bold_tstat.nii.gz,-0.34887775778770447,-0.07196227461099625,Generic,Legacy,4007_ofM_bold
19,EPIlowcov,4007,ofM,JogB,1,T2w+CBV,/home/chymera/.scratch/irsabi/l1/generic_ambmc/sub-4007/ses-ofM/sub-4007_ses-ofM_task-JogB_acq-EPIlowcov_run-1_cbv_tstat.nii.gz,2.8352584838867188,2.765366554260254,Generic,Legacy,4007_ofM_cbv
20,EPIlowcov,4007,ofMaF,JogB,0,T2w+BOLD,/home/chymera/.scratch/irsabi/l1/generic_ambmc/sub-4007/ses-ofMaF/sub-4007_ses-ofMaF_task-JogB_acq-EPIlowcov_run-0_bold_tstat.nii.gz,-0.8882876038551331,-0.8322948217391968,Generic,Legacy,4007_ofMaF_bold
21,EPIlowcov,4007,ofMaF,JogB,1,T2w+CBV,/home/chymera/.scratch/irsabi/l1/generic_ambmc/sub-4007/ses-ofMaF/sub-4007_ses-ofMaF_task-JogB_acq-EPIlowcov_run-1_cbv_tstat.nii.gz,1.5441200733184814,1.0412304401397705,Generic,Legacy,4007_ofMaF_cbv
22,EPIlowcov,4007,ofMcF1,JogB,0,T2w+BOLD,/home/chymera/.scratch/irsabi/l1/generic_ambmc/sub-4007/ses-ofMcF1/sub-4007_ses-ofMcF1_task-JogB_acq-EPIlowcov_run-0_bold_tstat.nii.gz,1.7090365886688232,1.9235453605651855,Generic,Legacy,4007_ofMcF1_bold
23,EPIlowcov,4007,ofMcF1,JogB,1,T2w+CBV,/home/chymera/.scratch/irsabi/l1/generic_ambmc/sub-4007/ses-ofMcF1/sub-4007_ses-ofMcF1_task-JogB_acq-EPIlowcov_run-1_cbv_tstat.nii.gz,0.4884432554244995,0.40167829394340515,Generic,Legacy,4007_ofMcF1_cbv
24,EPIlowcov,4007,ofMcF2,JogB,0,T2w+BOLD,/home/chymera/.scratch/irsabi/l1/generic_ambmc/sub-4007/ses-ofMcF2/sub-4007_ses-ofMcF2_task-JogB_acq-EPIlowcov_run-0_bold_tstat.nii.gz,0.9356951713562012,1.2085449695587158,Generic,Legacy,4007_ofMcF2_bold
25,EPIlowcov,4007,ofMcF2,JogB,1,T2w+CBV,/home/chymera/.scratch/irsabi/l1/generic_ambmc/sub-4007/ses-ofMcF2/sub-4007_ses-ofMcF2_task-JogB_acq-EPIlowcov_run-1_cbv_tstat.nii.gz,2.719144344329834,2.692934513092041,Generic,Legacy,4007_ofMcF2_cbv
26,EPIlowcov,4007,ofMpF,JogB,0,T2w+BOLD,/home/chymera/.scratch/irsabi/l1/generic_ambmc/sub-4007/ses-ofMpF/sub-4007_ses-ofMpF_task-JogB_acq-EPIlowcov_run-0_bold_tstat.nii.gz,-1.3922662734985352,-1.5197579860687256,Generic,Legacy,4007_ofMpF_bold
27,EPIlowcov,4007,ofMpF,JogB,1,T2w+CBV,/home/chymera/.scratch/irsabi/l1/generic_ambmc/sub-4007/ses-ofMpF/sub-4007_ses-ofMpF_task-JogB_acq-EPIlowcov_run-1_cbv_tstat.nii.gz,2.023597240447998,1.942117691040039,Generic,Legacy,4007_ofMpF_cbv
28,EPIlowcov,4008,ofM,JogB,0,T2w+BOLD,/home/chymera/.scratch/irsabi/l1/generic_ambmc/sub-4008/ses-ofM/sub-4008_ses-ofM_task-JogB_acq-EPIlowcov_run-0_bold_tstat.nii.gz,-1.5578948259353638,-1.7174782752990723,Generic,Legacy,4008_ofM_bold
29,EPIlowcov,4008,ofM,JogB,1,T2w+CBV,/home/chymera/.scratch/irsabi/l1/generic_ambmc/sub-4008/ses-ofM/sub-4008_ses-ofM_task-JogB_acq-EPIlowcov_run-1_cbv_tstat.nii.gz,0.12693949043750763,0.019977997988462448,Generic,Legacy,4008_ofM_cbv
30,EPIlowcov,4008,ofMaF,JogB,0,T2w+BOLD,/home/chymera/.scratch/irsabi/l1/generic_ambmc/sub-4008/ses-ofMaF/sub-4008_ses-ofMaF_task-JogB_acq-EPIlowcov_run-0_bold_tstat.nii.gz,-1.0924031734466553,-0.9581304788589478,Generic,Legacy,4008_ofMaF_bold
31,EPIlowcov,4008,ofMaF,JogB,1,T2w+CBV,/home/chymera/.scratch/irsabi/l1/generic_ambmc/sub-4008/ses-ofMaF/sub-4008_ses-ofMaF_task-JogB_acq-EPIlowcov_run-1_cbv_tstat.nii.gz,1.7329487800598145,2.385890483856201,Generic,Legacy,4008_ofMaF_cbv
32,EPIlowcov,4008,ofMcF1,JogB,0,T2w+BOLD,/home/chymera/.scratch/irsabi/l1/generic_ambmc/sub-4008/ses-ofMcF1/sub-4008_ses-ofMcF1_task-JogB_acq-EPIlowcov_run-0_bold_tstat.nii.gz,-0.4141661524772644,-0.11276896297931671,Generic,Legacy,4008_ofMcF1_bold
33,EPIlowcov,4008,ofMcF1,JogB,1,T2w+CBV,/home/chymera/.scratch/irsabi/l1/generic_ambmc/sub-4008/ses-ofMcF1/sub-4008_ses-ofMcF1_task-JogB_acq-EPIlowcov_run-1_cbv_tstat.nii.gz,0.6086580157279968,0.6490175724029541,Generic,Legacy,4008_ofMcF1_cbv
34,EPIlowcov,4008,ofMcF2,JogB,0,T2w+BOLD,/home/chymera/.scratch/irsabi/l1/generic_ambmc/sub-4008/ses-ofMcF2/sub-4008_ses-ofMcF2_task-JogB_acq-EPIlowcov_run-0_bold_tstat.nii.gz,-5.177960395812988,-5.090826511383057,Generic,Legacy,4008_ofMcF2_bold
35,EPIlowcov,4008,ofMcF2,JogB,1,T2w+CBV,/home/chymera/.scratch/irsabi/l1/generic_ambmc/sub-4008/ses-ofMcF2/sub-4008_ses-ofMcF2_task-JogB_acq-EPIlowcov_run-1_cbv_tstat.nii.gz,3.2693049907684326,2.6869897842407227,Generic,Legacy,4008_ofMcF2_cbv
36,EPIlowcov,4008,ofMpF,JogB,0,T2w+BOLD,/home/chymera/.scratch/irsabi/l1/generic_ambmc/sub-4008/ses-ofMpF/sub-4008_ses-ofMpF_task-JogB_acq-EPIlowcov_run-0_bold_tstat.nii.gz,0.8305765390396118,0.732122540473938,Generic,Legacy,4008_ofMpF_bold
37,EPIlowcov,4008,ofMpF,JogB,1,T2w+CBV,/home/chymera/.scratch/irsabi/l1/generic_ambmc/sub-4008/ses-ofMpF/sub-4008_ses-ofMpF_task-JogB_acq-EPIlowcov_run-1_cbv_tstat.nii.gz,0.818552553653717,0.8139770030975342,Generic,Legacy,4008_ofMpF_cbv
38,EPIlowcov,4009,ofM,JogB,0,T2w+BOLD,/home/chymera/.scratch/irsabi/l1/generic_ambmc/sub-4009/ses-ofM/sub-4009_ses-ofM_task-JogB_acq-EPIlowcov_run-0_bold_tstat.nii.gz,-0.5043153762817383,-0.5757752656936646,Generic,Legacy,4009_ofM_bold
39,EPIlowcov,4009,ofM,JogB,1,T2w+CBV,/home/chymera/.scratch/irsabi/l1/generic_ambmc/sub-4009/ses-ofM/sub-4009_ses-ofM_task-JogB_acq-EPIlowcov_run-1_cbv_tstat.nii.gz,2.245680570602417,2.330775022506714,Generic,Legacy,4009_ofM_cbv
40,EPIlowcov,4009,ofMaF,JogB,0,T2w+BOLD,/home/chymera/.scratch/irsabi/l1/generic_ambmc/sub-4009/ses-ofMaF/sub-4009_ses-ofMaF_task-JogB_acq-EPIlowcov_run-0_bold_tstat.nii.gz,0.1165560856461525,0.4534761607646942,Generic,Legacy,4009_ofMaF_bold
41,EPIlowcov,4009,ofMaF,JogB,1,T2w+CBV,/home/chymera/.scratch/irsabi/l1/generic_ambmc/sub-4009/ses-ofMaF/sub-4009_ses-ofMaF_task-JogB_acq-EPIlowcov_run-1_cbv_tstat.nii.gz,-0.9558840990066528,-0.959068775177002,Generic,Legacy,4009_ofMaF_cbv
42,EPIlowcov,4009,ofMcF1,JogB,0,T2w+BOLD,/home/chymera/.scratch/irsabi/l1/generic_ambmc/sub-4009/ses-ofMcF1/sub-4009_ses-ofMcF1_task-JogB_acq-EPIlowcov_run-0_bold_tstat.nii.gz,-1.3516136407852173,-1.3648884296417236,Generic,Legacy,4009_ofMcF1_bold
43,EPIlowcov,4009,ofMcF1,JogB,1,T2w+CBV,/home/chymera/.scratch/irsabi/l1/generic_ambmc/sub-4009/ses-ofMcF1/sub-4009_ses-ofMcF1_task-JogB_acq-EPIlowcov_run-1_cbv_tstat.nii.gz,0.5356530547142029,0.7844263315200806,Generic,Legacy,4009_ofMcF1_cbv
44,EPIlowcov,4009,ofMcF2,JogB,0,T2w+BOLD,/home/chymera/.scratch/irsabi/l1/generic_ambmc/sub-4009/ses-ofMcF2/sub-4009_ses-ofMcF2_task-JogB_acq-EPIlowcov_run-0_bold_tstat.nii.gz,-4.0803093910217285,-4.620898723602295,Generic,Legacy,4009_ofMcF2_bold
45,EPIlowcov,4009,ofMcF2,JogB,1,T2w+CBV,/home/chymera/.scratch/irsabi/l1/generic_ambmc/sub-4009/ses-ofMcF2/sub-4009_ses-ofMcF2_task-JogB_acq-EPIlowcov_run-1_cbv_tstat.nii.gz,2.314330816268921,2.2140984535217285,Generic,Legacy,4009_ofMcF2_cbv
46,EPIlowcov,4009,ofMpF,JogB,0,T2w+BOLD,/home/chymera/.scratch/irsabi/l1/generic_ambmc/sub-4009/ses-ofMpF/sub-4009_ses-ofMpF_task-JogB_acq-EPIlowcov_run-0_bold_tstat.nii.gz,-0.6624169945716858,-0.5135287046432495,Generic,Legacy,4009_ofMpF_bold
47,EPIlowcov,4009,ofMpF,JogB,1,T2w+CBV,/home/chymera/.scratch/irsabi/l1/generic_ambmc/sub-4009/ses-ofMpF/sub-4009_ses-ofMpF_task-JogB_acq-EPIlowcov_run-1_cbv_tstat.nii.gz,-0.007710353937000036,-0.22662094235420227,Generic,Legacy,4009_ofMpF_cbv
48,EPIlowcov,4011,ofM,JogB,0,T2w+BOLD,/home/chymera/.scratch/irsabi/l1/generic_ambmc/sub-4011/ses-ofM/sub-4011_ses-ofM_task-JogB_acq-EPIlowcov_run-0_bold_tstat.nii.gz,-1.022593379020691,-0.9937164783477783,Generic,Legacy,4011_ofM_bold
49,EPIlowcov,4011,ofM,JogB,1,T2w+CBV,/home/chymera/.scratch/irsabi/l1/generic_ambmc/sub-4011/ses-ofM/sub-4011_ses-ofM_task-JogB_acq-EPIlowcov_run-1_cbv_tstat.nii.gz,1.2923264503479004,1.3694283962249756,Generic,Legacy,4011_ofM_cbv
50,EPIlowcov,4011,ofMaF,JogB,0,T2w+BOLD,/home/chymera/.scratch/irsabi/l1/generic_ambmc/sub-4011/ses-ofMaF/sub-4011_ses-ofMaF_task-JogB_acq-EPIlowcov_run-0_bold_tstat.nii.gz,-3.540753126144409,-3.0060629844665527,Generic,Legacy,4011_ofMaF_bold
51,EPIlowcov,4011,ofMaF,JogB,1,T2w+CBV,/home/chymera/.scratch/irsabi/l1/generic_ambmc/sub-4011/ses-ofMaF/sub-4011_ses-ofMaF_task-JogB_acq-EPIlowcov_run-1_cbv_tstat.nii.gz,1.4959217309951782,1.7829484939575195,Generic,Legacy,4011_ofMaF_cbv
52,EPIlowcov,4011,ofMcF1,JogB,0,T2w+BOLD,/home/chymera/.scratch/irsabi/l1/generic_ambmc/sub-4011/ses-ofMcF1/sub-4011_ses-ofMcF1_task-JogB_acq-EPIlowcov_run-0_bold_tstat.nii.gz,0.5024556517601013,-0.2906990647315979,Generic,Legacy,4011_ofMcF1_bold
53,EPIlowcov,4011,ofMcF1,JogB,1,T2w+CBV,/home/chymera/.scratch/irsabi/l1/generic_ambmc/sub-4011/ses-ofMcF1/sub-4011_ses-ofMcF1_task-JogB_acq-EPIlowcov_run-1_cbv_tstat.nii.gz,0.9038019776344299,0.5030843019485474,Generic,Legacy,4011_ofMcF1_cbv
54,EPIlowcov,4011,ofMcF2,JogB,0,T2w+BOLD,/home/chymera/.scratch/irsabi/l1/generic_ambmc/sub-4011/ses-ofMcF2/sub-4011_ses-ofMcF2_task-JogB_acq-EPIlowcov_run-0_bold_tstat.nii.gz,-0.8762079477310181,-0.9174849987030029,Generic,Legacy,4011_ofMcF2_bold
55,EPIlowcov,4011,ofMcF2,JogB,1,T2w+CBV,/home/chymera/.scratch/irsabi/l1/generic_ambmc/sub-4011/ses-ofMcF2/sub-4011_ses-ofMcF2_task-JogB_acq-EPIlowcov_run-1_cbv_tstat.nii.gz,2.349055290222168,2.498788595199585,Generic,Legacy,4011_ofMcF2_cbv
56,EPIlowcov,4012,ofM,JogB,0,T2w+BOLD,/home/chymera/.scratch/irsabi/l1/generic_ambmc/sub-4012/ses-ofM/sub-4012_ses-ofM_task-JogB_acq-EPIlowcov_run-0_bold_tstat.nii.gz,-0.7478920221328735,-0.880131721496582,Generic,Legacy,4012_ofM_bold
57,EPIlowcov,4012,ofM,JogB,1,T2w+CBV,/home/chymera/.scratch/irsabi/l1/generic_ambmc/sub-4012/ses-ofM/sub-4012_ses-ofM_task-JogB_acq-EPIlowcov_run-1_cbv_tstat.nii.gz,1.2624056339263916,1.333405613899231,Generic,Legacy,4012_ofM_cbv
58,EPIlowcov,4012,ofMaF,JogB,0,T2w+BOLD,/home/chymera/.scratch/irsabi/l1/generic_ambmc/sub-4012/ses-ofMaF/sub-4012_ses-ofMaF_task-JogB_acq-EPIlowcov_run-0_bold_tstat.nii.gz,1.0896698236465454,0.8797346949577332,Generic,Legacy,4012_ofMaF_bold
59,EPIlowcov,4012,ofMaF,JogB,1,T2w+CBV,/home/chymera/.scratch/irsabi/l1/generic_ambmc/sub-4012/ses-ofMaF/sub-4012_ses-ofMaF_task-JogB_acq-EPIlowcov_run-1_cbv_tstat.nii.gz,0.10074032843112946,0.36467522382736206,Generic,Legacy,4012_ofMaF_cbv
60,EPIlowcov,4012,ofMcF1,JogB,0,T2w+BOLD,/home/chymera/.scratch/irsabi/l1/generic_ambmc/sub-4012/ses-ofMcF1/sub-4012_ses-ofMcF1_task-JogB_acq-EPIlowcov_run-0_bold_tstat.nii.gz,-0.926795244216919,-1.2135003805160522,Generic,Legacy,4012_ofMcF1_bold
61,EPIlowcov,4012,ofMcF1,JogB,1,T2w+CBV,/home/chymera/.scratch/irsabi/l1/generic_ambmc/sub-4012/ses-ofMcF1/sub-4012_ses-ofMcF1_task-JogB_acq-EPIlowcov_run-1_cbv_tstat.nii.gz,0.6000690460205078,0.3474017381668091,Generic,Legacy,4012_ofMcF1_cbv
62,EPIlowcov,4012,ofMcF2,JogB,0,T2w+BOLD,/home/chymera/.scratch/irsabi/l1/generic_ambmc/sub-4012/ses-ofMcF2/sub-4012_ses-ofMcF2_task-JogB_acq-EPIlowcov_run-0_bold_tstat.nii.gz,6.0013556480407715,6.415835380554199,Generic,Legacy,4012_ofMcF2_bold
63,EPIlowcov,4012,ofMcF2,JogB,1,T2w+CBV,/home/chymera/.scratch/irsabi/l1/generic_ambmc/sub-4012/ses-ofMcF2/sub-4012_ses-ofMcF2_task-JogB_acq-EPIlowcov_run-1_cbv_tstat.nii.gz,-0.08586414158344269,-0.5948446989059448,Generic,Legacy,4012_ofMcF2_cbv
64,EPIlowcov,4012,ofMpF,JogB,0,T2w+BOLD,/home/chymera/.scratch/irsabi/l1/generic_ambmc/sub-4012/ses-ofMpF/sub-4012_ses-ofMpF_task-JogB_acq-EPIlowcov_run-0_bold_tstat.nii.gz,-0.6913495063781738,-0.802432119846344,Generic,Legacy,4012_ofMpF_bold
65,EPIlowcov,4012,ofMpF,JogB,1,T2w+CBV,/home/chymera/.scratch/irsabi/l1/generic_ambmc/sub-4012/ses-ofMpF/sub-4012_ses-ofMpF_task-JogB_acq-EPIlowcov_run-1_cbv_tstat.nii.gz,1.8095388412475586,1.645887851715088,Generic,Legacy,4012_ofMpF_cbv
66,EPIlowcov,4013,ofM,JogB,0,T2w+BOLD,/home/chymera/.scratch/irsabi/l1/generic_ambmc/sub-4013/ses-ofM/sub-4013_ses-ofM_task-JogB_acq-EPIlowcov_run-0_bold_tstat.nii.gz,-0.5177134871482849,-0.6823427677154541,Generic,Legacy,4013_ofM_bold
67,EPIlowcov,4013,ofM,JogB,1,T2w+CBV,/home/chymera/.scratch/irsabi/l1/generic_ambmc/sub-4013/ses-ofM/sub-4013_ses-ofM_task-JogB_acq-EPIlowcov_run-1_cbv_tstat.nii.gz,0.2527220845222473,0.004639103543013334,Generic,Legacy,4013_ofM_cbv
0,EPIlowcov,4001,ofM,JogB,0,T2w+BOLD,/home/chymera/.scratch/irsabi/l1/legacy/sub-4001/ses-ofM/sub-4001_ses-ofM_task-JogB_acq-EPIlowcov_run-0_bold_tstat.nii.gz,-2.1618824005126953,-1.8896665573120117,Legacy,Legacy,4001_ofM_bold
1,EPIlowcov,4001,ofM,JogB,1,T2w+CBV,/home/chymera/.scratch/irsabi/l1/legacy/sub-4001/ses-ofM/sub-4001_ses-ofM_task-JogB_acq-EPIlowcov_run-1_cbv_tstat.nii.gz,-0.5507941246032715,-0.4639354944229126,Legacy,Legacy,4001_ofM_cbv
2,EPIlowcov,4001,ofMaF,JogB,0,T2w+BOLD,/home/chymera/.scratch/irsabi/l1/legacy/sub-4001/ses-ofMaF/sub-4001_ses-ofMaF_task-JogB_acq-EPIlowcov_run-0_bold_tstat.nii.gz,-1.069562315940857,-0.5475572347640991,Legacy,Legacy,4001_ofMaF_bold
3,EPIlowcov,4001,ofMaF,JogB,1,T2w+CBV,/home/chymera/.scratch/irsabi/l1/legacy/sub-4001/ses-ofMaF/sub-4001_ses-ofMaF_task-JogB_acq-EPIlowcov_run-1_cbv_tstat.nii.gz,-0.32996684312820435,-0.3973158895969391,Legacy,Legacy,4001_ofMaF_cbv
4,EPIlowcov,4001,ofMcF1,JogB,0,T2w+BOLD,/home/chymera/.scratch/irsabi/l1/legacy/sub-4001/ses-ofMcF1/sub-4001_ses-ofMcF1_task-JogB_acq-EPIlowcov_run-0_bold_tstat.nii.gz,-5.254868507385254,-5.2623162269592285,Legacy,Legacy,4001_ofMcF1_bold
5,EPIlowcov,4001,ofMcF1,JogB,1,T2w+CBV,/home/chymera/.scratch/irsabi/l1/legacy/sub-4001/ses-ofMcF1/sub-4001_ses-ofMcF1_task-JogB_acq-EPIlowcov_run-1_cbv_tstat.nii.gz,5.843632221221924,5.734286308288574,Legacy,Legacy,4001_ofMcF1_cbv
6,EPIlowcov,4001,ofMcF2,JogB,0,T2w+BOLD,/home/chymera/.scratch/irsabi/l1/legacy/sub-4001/ses-ofMcF2/sub-4001_ses-ofMcF2_task-JogB_acq-EPIlowcov_run-0_bold_tstat.nii.gz,-3.349233388900757,-3.289604902267456,Legacy,Legacy,4001_ofMcF2_bold
7,EPIlowcov,4001,ofMcF2,JogB,1,T2w+CBV,/home/chymera/.scratch/irsabi/l1/legacy/sub-4001/ses-ofMcF2/sub-4001_ses-ofMcF2_task-JogB_acq-EPIlowcov_run-1_cbv_tstat.nii.gz,3.161923885345459,3.4080801010131836,Legacy,Legacy,4001_ofMcF2_cbv
8,EPIlowcov,4002,ofM,JogB,0,T2w+BOLD,/home/chymera/.scratch/irsabi/l1/legacy/sub-4002/ses-ofM/sub-4002_ses-ofM_task-JogB_acq-EPIlowcov_run-0_bold_tstat.nii.gz,-2.141085624694824,-2.1802682876586914,Legacy,Legacy,4002_ofM_bold
9,EPIlowcov,4002,ofM,JogB,1,T2w+CBV,/home/chymera/.scratch/irsabi/l1/legacy/sub-4002/ses-ofM/sub-4002_ses-ofM_task-JogB_acq-EPIlowcov_run-1_cbv_tstat.nii.gz,1.617489218711853,1.9257142543792725,Legacy,Legacy,4002_ofM_cbv
10,EPIlowcov,4004,ofM,JogB,0,T2w+BOLD,/home/chymera/.scratch/irsabi/l1/legacy/sub-4004/ses-ofM/sub-4004_ses-ofM_task-JogB_acq-EPIlowcov_run-0_bold_tstat.nii.gz,-0.7138468027114868,-1.0161240100860596,Legacy,Legacy,4004_ofM_bold
11,EPIlowcov,4004,ofM,JogB,1,T2w+CBV,/home/chymera/.scratch/irsabi/l1/legacy/sub-4004/ses-ofM/sub-4004_ses-ofM_task-JogB_acq-EPIlowcov_run-1_cbv_tstat.nii.gz,2.5842514038085938,2.7215075492858887,Legacy,Legacy,4004_ofM_cbv
12,EPIlowcov,4005,ofM,JogB,0,T2w+BOLD,/home/chymera/.scratch/irsabi/l1/legacy/sub-4005/ses-ofM/sub-4005_ses-ofM_task-JogB_acq-EPIlowcov_run-0_bold_tstat.nii.gz,-3.0803115367889404,-3.1084065437316895,Legacy,Legacy,4005_ofM_bold
13,EPIlowcov,4005,ofM,JogB,1,T2w+CBV,/home/chymera/.scratch/irsabi/l1/legacy/sub-4005/ses-ofM/sub-4005_ses-ofM_task-JogB_acq-EPIlowcov_run-1_cbv_tstat.nii.gz,3.1903364658355713,2.5929529666900635,Legacy,Legacy,4005_ofM_cbv
14,EPIlowcov,4005,ofMaF,JogB,0,T2w+BOLD,/home/chymera/.scratch/irsabi/l1/legacy/sub-4005/ses-ofMaF/sub-4005_ses-ofMaF_task-JogB_acq-EPIlowcov_run-0_bold_tstat.nii.gz,-0.5336915254592896,-0.331860214471817,Legacy,Legacy,4005_ofMaF_bold
15,EPIlowcov,4005,ofMaF,JogB,1,T2w+CBV,/home/chymera/.scratch/irsabi/l1/legacy/sub-4005/ses-ofMaF/sub-4005_ses-ofMaF_task-JogB_acq-EPIlowcov_run-1_cbv_tstat.nii.gz,-1.007784366607666,-1.1779799461364746,Legacy,Legacy,4005_ofMaF_cbv
16,EPIlowcov,4006,ofM,JogB,0,T2w+BOLD,/home/chymera/.scratch/irsabi/l1/legacy/sub-4006/ses-ofM/sub-4006_ses-ofM_task-JogB_acq-EPIlowcov_run-0_bold_tstat.nii.gz,-1.5719807147979736,-1.303264856338501,Legacy,Legacy,4006_ofM_bold
17,EPIlowcov,4006,ofM,JogB,1,T2w+CBV,/home/chymera/.scratch/irsabi/l1/legacy/sub-4006/ses-ofM/sub-4006_ses-ofM_task-JogB_acq-EPIlowcov_run-1_cbv_tstat.nii.gz,1.7422411441802979,1.9789910316467285,Legacy,Legacy,4006_ofM_cbv
18,EPIlowcov,4007,ofM,JogB,0,T2w+BOLD,/home/chymera/.scratch/irsabi/l1/legacy/sub-4007/ses-ofM/sub-4007_ses-ofM_task-JogB_acq-EPIlowcov_run-0_bold_tstat.nii.gz,-3.4341344833374023,-3.4870619773864746,Legacy,Legacy,4007_ofM_bold
19,EPIlowcov,4007,ofM,JogB,1,T2w+CBV,/home/chymera/.scratch/irsabi/l1/legacy/sub-4007/ses-ofM/sub-4007_ses-ofM_task-JogB_acq-EPIlowcov_run-1_cbv_tstat.nii.gz,0.8380610346794128,0.9356821179389954,Legacy,Legacy,4007_ofM_cbv
20,EPIlowcov,4007,ofMaF,JogB,0,T2w+BOLD,/home/chymera/.scratch/irsabi/l1/legacy/sub-4007/ses-ofMaF/sub-4007_ses-ofMaF_task-JogB_acq-EPIlowcov_run-0_bold_tstat.nii.gz,-1.1231544017791748,-1.3139686584472656,Legacy,Legacy,4007_ofMaF_bold
21,EPIlowcov,4007,ofMaF,JogB,1,T2w+CBV,/home/chymera/.scratch/irsabi/l1/legacy/sub-4007/ses-ofMaF/sub-4007_ses-ofMaF_task-JogB_acq-EPIlowcov_run-1_cbv_tstat.nii.gz,1.670469045639038,1.6234532594680786,Legacy,Legacy,4007_ofMaF_cbv
22,EPIlowcov,4007,ofMcF1,JogB,0,T2w+BOLD,/home/chymera/.scratch/irsabi/l1/legacy/sub-4007/ses-ofMcF1/sub-4007_ses-ofMcF1_task-JogB_acq-EPIlowcov_run-0_bold_tstat.nii.gz,-0.27196386456489563,0.112558513879776,Legacy,Legacy,4007_ofMcF1_bold
23,EPIlowcov,4007,ofMcF1,JogB,1,T2w+CBV,/home/chymera/.scratch/irsabi/l1/legacy/sub-4007/ses-ofMcF1/sub-4007_ses-ofMcF1_task-JogB_acq-EPIlowcov_run-1_cbv_tstat.nii.gz,0.0595654658973217,-0.2082417607307434,Legacy,Legacy,4007_ofMcF1_cbv
24,EPIlowcov,4007,ofMcF2,JogB,0,T2w+BOLD,/home/chymera/.scratch/irsabi/l1/legacy/sub-4007/ses-ofMcF2/sub-4007_ses-ofMcF2_task-JogB_acq-EPIlowcov_run-0_bold_tstat.nii.gz,0.10483226180076599,0.48539167642593384,Legacy,Legacy,4007_ofMcF2_bold
25,EPIlowcov,4007,ofMcF2,JogB,1,T2w+CBV,/home/chymera/.scratch/irsabi/l1/legacy/sub-4007/ses-ofMcF2/sub-4007_ses-ofMcF2_task-JogB_acq-EPIlowcov_run-1_cbv_tstat.nii.gz,0.3045823276042938,1.263117790222168,Legacy,Legacy,4007_ofMcF2_cbv
26,EPIlowcov,4007,ofMpF,JogB,0,T2w+BOLD,/home/chymera/.scratch/irsabi/l1/legacy/sub-4007/ses-ofMpF/sub-4007_ses-ofMpF_task-JogB_acq-EPIlowcov_run-0_bold_tstat.nii.gz,-1.5299792289733887,-1.834017276763916,Legacy,Legacy,4007_ofMpF_bold
27,EPIlowcov,4007,ofMpF,JogB,1,T2w+CBV,/home/chymera/.scratch/irsabi/l1/legacy/sub-4007/ses-ofMpF/sub-4007_ses-ofMpF_task-JogB_acq-EPIlowcov_run-1_cbv_tstat.nii.gz,1.7987669706344604,1.1857872009277344,Legacy,Legacy,4007_ofMpF_cbv
28,EPIlowcov,4008,ofM,JogB,0,T2w+BOLD,/home/chymera/.scratch/irsabi/l1/legacy/sub-4008/ses-ofM/sub-4008_ses-ofM_task-JogB_acq-EPIlowcov_run-0_bold_tstat.nii.gz,-1.9781256914138794,-2.1123814582824707,Legacy,Legacy,4008_ofM_bold
29,EPIlowcov,4008,ofM,JogB,1,T2w+CBV,/home/chymera/.scratch/irsabi/l1/legacy/sub-4008/ses-ofM/sub-4008_ses-ofM_task-JogB_acq-EPIlowcov_run-1_cbv_tstat.nii.gz,0.6911431550979614,1.1909456253051758,Legacy,Legacy,4008_ofM_cbv
30,EPIlowcov,4008,ofMaF,JogB,0,T2w+BOLD,/home/chymera/.scratch/irsabi/l1/legacy/sub-4008/ses-ofMaF/sub-4008_ses-ofMaF_task-JogB_acq-EPIlowcov_run-0_bold_tstat.nii.gz,0.5336630940437317,0.38288211822509766,Legacy,Legacy,4008_ofMaF_bold
31,EPIlowcov,4008,ofMaF,JogB,1,T2w+CBV,/home/chymera/.scratch/irsabi/l1/legacy/sub-4008/ses-ofMaF/sub-4008_ses-ofMaF_task-JogB_acq-EPIlowcov_run-1_cbv_tstat.nii.gz,2.480590343475342,2.5670742988586426,Legacy,Legacy,4008_ofMaF_cbv
32,EPIlowcov,4008,ofMcF1,JogB,0,T2w+BOLD,/home/chymera/.scratch/irsabi/l1/legacy/sub-4008/ses-ofMcF1/sub-4008_ses-ofMcF1_task-JogB_acq-EPIlowcov_run-0_bold_tstat.nii.gz,0.7948265671730042,0.6388009786605835,Legacy,Legacy,4008_ofMcF1_bold
33,EPIlowcov,4008,ofMcF1,JogB,1,T2w+CBV,/home/chymera/.scratch/irsabi/l1/legacy/sub-4008/ses-ofMcF1/sub-4008_ses-ofMcF1_task-JogB_acq-EPIlowcov_run-1_cbv_tstat.nii.gz,-0.08273043483495712,0.0322452075779438,Legacy,Legacy,4008_ofMcF1_cbv
34,EPIlowcov,4008,ofMcF2,JogB,0,T2w+BOLD,/home/chymera/.scratch/irsabi/l1/legacy/sub-4008/ses-ofMcF2/sub-4008_ses-ofMcF2_task-JogB_acq-EPIlowcov_run-0_bold_tstat.nii.gz,-5.670451641082764,-5.809938430786133,Legacy,Legacy,4008_ofMcF2_bold
35,EPIlowcov,4008,ofMcF2,JogB,1,T2w+CBV,/home/chymera/.scratch/irsabi/l1/legacy/sub-4008/ses-ofMcF2/sub-4008_ses-ofMcF2_task-JogB_acq-EPIlowcov_run-1_cbv_tstat.nii.gz,2.1029534339904785,2.041978359222412,Legacy,Legacy,4008_ofMcF2_cbv
36,EPIlowcov,4008,ofMpF,JogB,0,T2w+BOLD,/home/chymera/.scratch/irsabi/l1/legacy/sub-4008/ses-ofMpF/sub-4008_ses-ofMpF_task-JogB_acq-EPIlowcov_run-0_bold_tstat.nii.gz,0.5189895033836365,1.249333381652832,Legacy,Legacy,4008_ofMpF_bold
37,EPIlowcov,4008,ofMpF,JogB,1,T2w+CBV,/home/chymera/.scratch/irsabi/l1/legacy/sub-4008/ses-ofMpF/sub-4008_ses-ofMpF_task-JogB_acq-EPIlowcov_run-1_cbv_tstat.nii.gz,0.8730303645133972,0.8878136873245239,Legacy,Legacy,4008_ofMpF_cbv
38,EPIlowcov,4009,ofM,JogB,0,T2w+BOLD,/home/chymera/.scratch/irsabi/l1/legacy/sub-4009/ses-ofM/sub-4009_ses-ofM_task-JogB_acq-EPIlowcov_run-0_bold_tstat.nii.gz,0.8599495887756348,0.6719473600387573,Legacy,Legacy,4009_ofM_bold
39,EPIlowcov,4009,ofM,JogB,1,T2w+CBV,/home/chymera/.scratch/irsabi/l1/legacy/sub-4009/ses-ofM/sub-4009_ses-ofM_task-JogB_acq-EPIlowcov_run-1_cbv_tstat.nii.gz,2.328467845916748,2.304781913757324,Legacy,Legacy,4009_ofM_cbv
40,EPIlowcov,4009,ofMaF,JogB,0,T2w+BOLD,/home/chymera/.scratch/irsabi/l1/legacy/sub-4009/ses-ofMaF/sub-4009_ses-ofMaF_task-JogB_acq-EPIlowcov_run-0_bold_tstat.nii.gz,1.6774975061416626,1.7708556652069092,Legacy,Legacy,4009_ofMaF_bold
41,EPIlowcov,4009,ofMaF,JogB,1,T2w+CBV,/home/chymera/.scratch/irsabi/l1/legacy/sub-4009/ses-ofMaF/sub-4009_ses-ofMaF_task-JogB_acq-EPIlowcov_run-1_cbv_tstat.nii.gz,-1.5156545639038086,-1.6663627624511719,Legacy,Legacy,4009_ofMaF_cbv
42,EPIlowcov,4009,ofMcF1,JogB,0,T2w+BOLD,/home/chymera/.scratch/irsabi/l1/legacy/sub-4009/ses-ofMcF1/sub-4009_ses-ofMcF1_task-JogB_acq-EPIlowcov_run-0_bold_tstat.nii.gz,0.2724662125110626,0.16127367317676544,Legacy,Legacy,4009_ofMcF1_bold
43,EPIlowcov,4009,ofMcF1,JogB,1,T2w+CBV,/home/chymera/.scratch/irsabi/l1/legacy/sub-4009/ses-ofMcF1/sub-4009_ses-ofMcF1_task-JogB_acq-EPIlowcov_run-1_cbv_tstat.nii.gz,-0.07049842923879623,0.11862382292747498,Legacy,Legacy,4009_ofMcF1_cbv
44,EPIlowcov,4009,ofMcF2,JogB,0,T2w+BOLD,/home/chymera/.scratch/irsabi/l1/legacy/sub-4009/ses-ofMcF2/sub-4009_ses-ofMcF2_task-JogB_acq-EPIlowcov_run-0_bold_tstat.nii.gz,-6.238724708557129,-6.39222526550293,Legacy,Legacy,4009_ofMcF2_bold
45,EPIlowcov,4009,ofMcF2,JogB,1,T2w+CBV,/home/chymera/.scratch/irsabi/l1/legacy/sub-4009/ses-ofMcF2/sub-4009_ses-ofMcF2_task-JogB_acq-EPIlowcov_run-1_cbv_tstat.nii.gz,3.2876007556915283,3.3372550010681152,Legacy,Legacy,4009_ofMcF2_cbv
46,EPIlowcov,4009,ofMpF,JogB,0,T2w+BOLD,/home/chymera/.scratch/irsabi/l1/legacy/sub-4009/ses-ofMpF/sub-4009_ses-ofMpF_task-JogB_acq-EPIlowcov_run-0_bold_tstat.nii.gz,-1.4658558368682861,-1.8453187942504883,Legacy,Legacy,4009_ofMpF_bold
47,EPIlowcov,4009,ofMpF,JogB,1,T2w+CBV,/home/chymera/.scratch/irsabi/l1/legacy/sub-4009/ses-ofMpF/sub-4009_ses-ofMpF_task-JogB_acq-EPIlowcov_run-1_cbv_tstat.nii.gz,0.057940419763326645,-0.0443442240357399,Legacy,Legacy,4009_ofMpF_cbv
48,EPIlowcov,4011,ofM,JogB,0,T2w+BOLD,/home/chymera/.scratch/irsabi/l1/legacy/sub-4011/ses-ofM/sub-4011_ses-ofM_task-JogB_acq-EPIlowcov_run-0_bold_tstat.nii.gz,-3.7778713703155518,-3.4761710166931152,Legacy,Legacy,4011_ofM_bold
49,EPIlowcov,4011,ofM,JogB,1,T2w+CBV,/home/chymera/.scratch/irsabi/l1/legacy/sub-4011/ses-ofM/sub-4011_ses-ofM_task-JogB_acq-EPIlowcov_run-1_cbv_tstat.nii.gz,2.548555850982666,2.5270638465881348,Legacy,Legacy,4011_ofM_cbv
50,EPIlowcov,4011,ofMaF,JogB,0,T2w+BOLD,/home/chymera/.scratch/irsabi/l1/legacy/sub-4011/ses-ofMaF/sub-4011_ses-ofMaF_task-JogB_acq-EPIlowcov_run-0_bold_tstat.nii.gz,-1.2638261318206787,-1.1756341457366943,Legacy,Legacy,4011_ofMaF_bold
51,EPIlowcov,4011,ofMaF,JogB,1,T2w+CBV,/home/chymera/.scratch/irsabi/l1/legacy/sub-4011/ses-ofMaF/sub-4011_ses-ofMaF_task-JogB_acq-EPIlowcov_run-1_cbv_tstat.nii.gz,3.284665107727051,3.7294487953186035,Legacy,Legacy,4011_ofMaF_cbv
52,EPIlowcov,4011,ofMcF1,JogB,0,T2w+BOLD,/home/chymera/.scratch/irsabi/l1/legacy/sub-4011/ses-ofMcF1/sub-4011_ses-ofMcF1_task-JogB_acq-EPIlowcov_run-0_bold_tstat.nii.gz,-0.0015303395921364427,-0.92429518699646,Legacy,Legacy,4011_ofMcF1_bold
53,EPIlowcov,4011,ofMcF1,JogB,1,T2w+CBV,/home/chymera/.scratch/irsabi/l1/legacy/sub-4011/ses-ofMcF1/sub-4011_ses-ofMcF1_task-JogB_acq-EPIlowcov_run-1_cbv_tstat.nii.gz,-1.4465714693069458,-1.888669729232788,Legacy,Legacy,4011_ofMcF1_cbv
54,EPIlowcov,4011,ofMcF2,JogB,0,T2w+BOLD,/home/chymera/.scratch/irsabi/l1/legacy/sub-4011/ses-ofMcF2/sub-4011_ses-ofMcF2_task-JogB_acq-EPIlowcov_run-0_bold_tstat.nii.gz,-2.8942136764526367,-2.9920730590820312,Legacy,Legacy,4011_ofMcF2_bold
55,EPIlowcov,4011,ofMcF2,JogB,1,T2w+CBV,/home/chymera/.scratch/irsabi/l1/legacy/sub-4011/ses-ofMcF2/sub-4011_ses-ofMcF2_task-JogB_acq-EPIlowcov_run-1_cbv_tstat.nii.gz,0.1389186978340149,0.0770660787820816,Legacy,Legacy,4011_ofMcF2_cbv
56,EPIlowcov,4012,ofM,JogB,0,T2w+BOLD,/home/chymera/.scratch/irsabi/l1/legacy/sub-4012/ses-ofM/sub-4012_ses-ofM_task-JogB_acq-EPIlowcov_run-0_bold_tstat.nii.gz,-0.6372061967849731,-0.7210022211074829,Legacy,Legacy,4012_ofM_bold
57,EPIlowcov,4012,ofM,JogB,1,T2w+CBV,/home/chymera/.scratch/irsabi/l1/legacy/sub-4012/ses-ofM/sub-4012_ses-ofM_task-JogB_acq-EPIlowcov_run-1_cbv_tstat.nii.gz,2.855745315551758,2.8793530464172363,Legacy,Legacy,4012_ofM_cbv
58,EPIlowcov,4012,ofMaF,JogB,0,T2w+BOLD,/home/chymera/.scratch/irsabi/l1/legacy/sub-4012/ses-ofMaF/sub-4012_ses-ofMaF_task-JogB_acq-EPIlowcov_run-0_bold_tstat.nii.gz,2.6920292377471924,2.336866617202759,Legacy,Legacy,4012_ofMaF_bold
59,EPIlowcov,4012,ofMaF,JogB,1,T2w+CBV,/home/chymera/.scratch/irsabi/l1/legacy/sub-4012/ses-ofMaF/sub-4012_ses-ofMaF_task-JogB_acq-EPIlowcov_run-1_cbv_tstat.nii.gz,0.4569467306137085,0.5381702780723572,Legacy,Legacy,4012_ofMaF_cbv
60,EPIlowcov,4012,ofMcF1,JogB,0,T2w+BOLD,/home/chymera/.scratch/irsabi/l1/legacy/sub-4012/ses-ofMcF1/sub-4012_ses-ofMcF1_task-JogB_acq-EPIlowcov_run-0_bold_tstat.nii.gz,0.9809783697128296,1.2773290872573853,Legacy,Legacy,4012_ofMcF1_bold
61,EPIlowcov,4012,ofMcF1,JogB,1,T2w+CBV,/home/chymera/.scratch/irsabi/l1/legacy/sub-4012/ses-ofMcF1/sub-4012_ses-ofMcF1_task-JogB_acq-EPIlowcov_run-1_cbv_tstat.nii.gz,0.960865318775177,0.9016019105911255,Legacy,Legacy,4012_ofMcF1_cbv
62,EPIlowcov,4012,ofMcF2,JogB,0,T2w+BOLD,/home/chymera/.scratch/irsabi/l1/legacy/sub-4012/ses-ofMcF2/sub-4012_ses-ofMcF2_task-JogB_acq-EPIlowcov_run-0_bold_tstat.nii.gz,10.005443572998047,9.881415367126465,Legacy,Legacy,4012_ofMcF2_bold
63,EPIlowcov,4012,ofMcF2,JogB,1,T2w+CBV,/home/chymera/.scratch/irsabi/l1/legacy/sub-4012/ses-ofMcF2/sub-4012_ses-ofMcF2_task-JogB_acq-EPIlowcov_run-1_cbv_tstat.nii.gz,-0.3234819769859314,-0.36838090419769287,Legacy,Legacy,4012_ofMcF2_cbv
64,EPIlowcov,4012,ofMpF,JogB,0,T2w+BOLD,/home/chymera/.scratch/irsabi/l1/legacy/sub-4012/ses-ofMpF/sub-4012_ses-ofMpF_task-JogB_acq-EPIlowcov_run-0_bold_tstat.nii.gz,0.1153380274772644,0.2793228030204773,Legacy,Legacy,4012_ofMpF_bold
65,EPIlowcov,4012,ofMpF,JogB,1,T2w+CBV,/home/chymera/.scratch/irsabi/l1/legacy/sub-4012/ses-ofMpF/sub-4012_ses-ofMpF_task-JogB_acq-EPIlowcov_run-1_cbv_tstat.nii.gz,3.283186197280884,4.007874488830566,Legacy,Legacy,4012_ofMpF_cbv
66,EPIlowcov,4013,ofM,JogB,0,T2w+BOLD,/home/chymera/.scratch/irsabi/l1/legacy/sub-4013/ses-ofM/sub-4013_ses-ofM_task-JogB_acq-EPIlowcov_run-0_bold_tstat.nii.gz,-1.406065583229065,-1.413284182548523,Legacy,Legacy,4013_ofM_bold
67,EPIlowcov,4013,ofM,JogB,1,T2w+CBV,/home/chymera/.scratch/irsabi/l1/legacy/sub-4013/ses-ofM/sub-4013_ses-ofM_task-JogB_acq-EPIlowcov_run-1_cbv_tstat.nii.gz,0.18062129616737366,0.02176729217171669,Legacy,Legacy,4013_ofM_cbv
0,EPIlowcov,4001,ofM,JogB,0,T2w+BOLD,/home/chymera/.scratch/irsabi/l1/legacy_dsurqec/sub-4001/ses-ofM/sub-4001_ses-ofM_task-JogB_acq-EPIlowcov_run-0_bold_tstat.nii.gz,-1.9939818382263184,-1.9939688444137573,Legacy,Generic,4001_ofM_bold
1,EPIlowcov,4001,ofM,JogB,1,T2w+CBV,/home/chymera/.scratch/irsabi/l1/legacy_dsurqec/sub-4001/ses-ofM/sub-4001_ses-ofM_task-JogB_acq-EPIlowcov_run-1_cbv_tstat.nii.gz,-0.36755841970443726,-0.2630310654640198,Legacy,Generic,4001_ofM_cbv
2,EPIlowcov,4001,ofMaF,JogB,0,T2w+BOLD,/home/chymera/.scratch/irsabi/l1/legacy_dsurqec/sub-4001/ses-ofMaF/sub-4001_ses-ofMaF_task-JogB_acq-EPIlowcov_run-0_bold_tstat.nii.gz,-1.9915913343429565,-1.6212199926376343,Legacy,Generic,4001_ofMaF_bold
3,EPIlowcov,4001,ofMaF,JogB,1,T2w+CBV,/home/chymera/.scratch/irsabi/l1/legacy_dsurqec/sub-4001/ses-ofMaF/sub-4001_ses-ofMaF_task-JogB_acq-EPIlowcov_run-1_cbv_tstat.nii.gz,-0.12527403235435486,-0.1439002901315689,Legacy,Generic,4001_ofMaF_cbv
4,EPIlowcov,4001,ofMcF1,JogB,0,T2w+BOLD,/home/chymera/.scratch/irsabi/l1/legacy_dsurqec/sub-4001/ses-ofMcF1/sub-4001_ses-ofMcF1_task-JogB_acq-EPIlowcov_run-0_bold_tstat.nii.gz,-3.4603071212768555,-3.5606040954589844,Legacy,Generic,4001_ofMcF1_bold
5,EPIlowcov,4001,ofMcF1,JogB,1,T2w+CBV,/home/chymera/.scratch/irsabi/l1/legacy_dsurqec/sub-4001/ses-ofMcF1/sub-4001_ses-ofMcF1_task-JogB_acq-EPIlowcov_run-1_cbv_tstat.nii.gz,4.289302825927734,3.9851250648498535,Legacy,Generic,4001_ofMcF1_cbv
6,EPIlowcov,4001,ofMcF2,JogB,0,T2w+BOLD,/home/chymera/.scratch/irsabi/l1/legacy_dsurqec/sub-4001/ses-ofMcF2/sub-4001_ses-ofMcF2_task-JogB_acq-EPIlowcov_run-0_bold_tstat.nii.gz,-3.4004745483398438,-3.6644880771636963,Legacy,Generic,4001_ofMcF2_bold
7,EPIlowcov,4001,ofMcF2,JogB,1,T2w+CBV,/home/chymera/.scratch/irsabi/l1/legacy_dsurqec/sub-4001/ses-ofMcF2/sub-4001_ses-ofMcF2_task-JogB_acq-EPIlowcov_run-1_cbv_tstat.nii.gz,2.9192087650299072,3.16664981842041,Legacy,Generic,4001_ofMcF2_cbv
8,EPIlowcov,4002,ofM,JogB,0,T2w+BOLD,/home/chymera/.scratch/irsabi/l1/legacy_dsurqec/sub-4002/ses-ofM/sub-4002_ses-ofM_task-JogB_acq-EPIlowcov_run-0_bold_tstat.nii.gz,-0.14568382501602173,-0.25432223081588745,Legacy,Generic,4002_ofM_bold
9,EPIlowcov,4002,ofM,JogB,1,T2w+CBV,/home/chymera/.scratch/irsabi/l1/legacy_dsurqec/sub-4002/ses-ofM/sub-4002_ses-ofM_task-JogB_acq-EPIlowcov_run-1_cbv_tstat.nii.gz,1.0227311849594116,1.0115898847579956,Legacy,Generic,4002_ofM_cbv
10,EPIlowcov,4004,ofM,JogB,0,T2w+BOLD,/home/chymera/.scratch/irsabi/l1/legacy_dsurqec/sub-4004/ses-ofM/sub-4004_ses-ofM_task-JogB_acq-EPIlowcov_run-0_bold_tstat.nii.gz,-2.289830446243286,-2.3457021713256836,Legacy,Generic,4004_ofM_bold
11,EPIlowcov,4004,ofM,JogB,1,T2w+CBV,/home/chymera/.scratch/irsabi/l1/legacy_dsurqec/sub-4004/ses-ofM/sub-4004_ses-ofM_task-JogB_acq-EPIlowcov_run-1_cbv_tstat.nii.gz,2.9207563400268555,3.0302820205688477,Legacy,Generic,4004_ofM_cbv
12,EPIlowcov,4005,ofM,JogB,0,T2w+BOLD,/home/chymera/.scratch/irsabi/l1/legacy_dsurqec/sub-4005/ses-ofM/sub-4005_ses-ofM_task-JogB_acq-EPIlowcov_run-0_bold_tstat.nii.gz,-3.844792366027832,-3.468036413192749,Legacy,Generic,4005_ofM_bold
13,EPIlowcov,4005,ofM,JogB,1,T2w+CBV,/home/chymera/.scratch/irsabi/l1/legacy_dsurqec/sub-4005/ses-ofM/sub-4005_ses-ofM_task-JogB_acq-EPIlowcov_run-1_cbv_tstat.nii.gz,2.4714345932006836,2.45013427734375,Legacy,Generic,4005_ofM_cbv
14,EPIlowcov,4005,ofMaF,JogB,0,T2w+BOLD,/home/chymera/.scratch/irsabi/l1/legacy_dsurqec/sub-4005/ses-ofMaF/sub-4005_ses-ofMaF_task-JogB_acq-EPIlowcov_run-0_bold_tstat.nii.gz,-2.2321248054504395,-2.6740593910217285,Legacy,Generic,4005_ofMaF_bold
15,EPIlowcov,4005,ofMaF,JogB,1,T2w+CBV,/home/chymera/.scratch/irsabi/l1/legacy_dsurqec/sub-4005/ses-ofMaF/sub-4005_ses-ofMaF_task-JogB_acq-EPIlowcov_run-1_cbv_tstat.nii.gz,-0.335891455411911,-0.6268227696418762,Legacy,Generic,4005_ofMaF_cbv
16,EPIlowcov,4006,ofM,JogB,0,T2w+BOLD,/home/chymera/.scratch/irsabi/l1/legacy_dsurqec/sub-4006/ses-ofM/sub-4006_ses-ofM_task-JogB_acq-EPIlowcov_run-0_bold_tstat.nii.gz,-1.9105859994888306,-1.2474677562713623,Legacy,Generic,4006_ofM_bold
17,EPIlowcov,4006,ofM,JogB,1,T2w+CBV,/home/chymera/.scratch/irsabi/l1/legacy_dsurqec/sub-4006/ses-ofM/sub-4006_ses-ofM_task-JogB_acq-EPIlowcov_run-1_cbv_tstat.nii.gz,1.4430360794067383,1.5495086908340454,Legacy,Generic,4006_ofM_cbv
18,EPIlowcov,4007,ofM,JogB,0,T2w+BOLD,/home/chymera/.scratch/irsabi/l1/legacy_dsurqec/sub-4007/ses-ofM/sub-4007_ses-ofM_task-JogB_acq-EPIlowcov_run-0_bold_tstat.nii.gz,-1.2414811849594116,-1.1163784265518188,Legacy,Generic,4007_ofM_bold
19,EPIlowcov,4007,ofM,JogB,1,T2w+CBV,/home/chymera/.scratch/irsabi/l1/legacy_dsurqec/sub-4007/ses-ofM/sub-4007_ses-ofM_task-JogB_acq-EPIlowcov_run-1_cbv_tstat.nii.gz,3.4078807830810547,3.8627262115478516,Legacy,Generic,4007_ofM_cbv
20,EPIlowcov,4007,ofMaF,JogB,0,T2w+BOLD,/home/chymera/.scratch/irsabi/l1/legacy_dsurqec/sub-4007/ses-ofMaF/sub-4007_ses-ofMaF_task-JogB_acq-EPIlowcov_run-0_bold_tstat.nii.gz,-0.9405770301818848,-1.0843206644058228,Legacy,Generic,4007_ofMaF_bold
21,EPIlowcov,4007,ofMaF,JogB,1,T2w+CBV,/home/chymera/.scratch/irsabi/l1/legacy_dsurqec/sub-4007/ses-ofMaF/sub-4007_ses-ofMaF_task-JogB_acq-EPIlowcov_run-1_cbv_tstat.nii.gz,1.9795817136764526,1.852484941482544,Legacy,Generic,4007_ofMaF_cbv
22,EPIlowcov,4007,ofMcF1,JogB,0,T2w+BOLD,/home/chymera/.scratch/irsabi/l1/legacy_dsurqec/sub-4007/ses-ofMcF1/sub-4007_ses-ofMcF1_task-JogB_acq-EPIlowcov_run-0_bold_tstat.nii.gz,-0.1624690443277359,0.2817949056625366,Legacy,Generic,4007_ofMcF1_bold
23,EPIlowcov,4007,ofMcF1,JogB,1,T2w+CBV,/home/chymera/.scratch/irsabi/l1/legacy_dsurqec/sub-4007/ses-ofMcF1/sub-4007_ses-ofMcF1_task-JogB_acq-EPIlowcov_run-1_cbv_tstat.nii.gz,0.8395609259605408,0.4218371510505676,Legacy,Generic,4007_ofMcF1_cbv
24,EPIlowcov,4007,ofMcF2,JogB,0,T2w+BOLD,/home/chymera/.scratch/irsabi/l1/legacy_dsurqec/sub-4007/ses-ofMcF2/sub-4007_ses-ofMcF2_task-JogB_acq-EPIlowcov_run-0_bold_tstat.nii.gz,0.9099505543708801,1.1719564199447632,Legacy,Generic,4007_ofMcF2_bold
25,EPIlowcov,4007,ofMcF2,JogB,1,T2w+CBV,/home/chymera/.scratch/irsabi/l1/legacy_dsurqec/sub-4007/ses-ofMcF2/sub-4007_ses-ofMcF2_task-JogB_acq-EPIlowcov_run-1_cbv_tstat.nii.gz,3.7616519927978516,3.7599611282348633,Legacy,Generic,4007_ofMcF2_cbv
26,EPIlowcov,4007,ofMpF,JogB,0,T2w+BOLD,/home/chymera/.scratch/irsabi/l1/legacy_dsurqec/sub-4007/ses-ofMpF/sub-4007_ses-ofMpF_task-JogB_acq-EPIlowcov_run-0_bold_tstat.nii.gz,-1.0405281782150269,-1.1921485662460327,Legacy,Generic,4007_ofMpF_bold
27,EPIlowcov,4007,ofMpF,JogB,1,T2w+CBV,/home/chymera/.scratch/irsabi/l1/legacy_dsurqec/sub-4007/ses-ofMpF/sub-4007_ses-ofMpF_task-JogB_acq-EPIlowcov_run-1_cbv_tstat.nii.gz,2.759694814682007,2.693279504776001,Legacy,Generic,4007_ofMpF_cbv
28,EPIlowcov,4008,ofM,JogB,0,T2w+BOLD,/home/chymera/.scratch/irsabi/l1/legacy_dsurqec/sub-4008/ses-ofM/sub-4008_ses-ofM_task-JogB_acq-EPIlowcov_run-0_bold_tstat.nii.gz,-1.2612730264663696,-1.456516981124878,Legacy,Generic,4008_ofM_bold
29,EPIlowcov,4008,ofM,JogB,1,T2w+CBV,/home/chymera/.scratch/irsabi/l1/legacy_dsurqec/sub-4008/ses-ofM/sub-4008_ses-ofM_task-JogB_acq-EPIlowcov_run-1_cbv_tstat.nii.gz,-0.5512703061103821,-0.5142651200294495,Legacy,Generic,4008_ofM_cbv
30,EPIlowcov,4008,ofMaF,JogB,0,T2w+BOLD,/home/chymera/.scratch/irsabi/l1/legacy_dsurqec/sub-4008/ses-ofMaF/sub-4008_ses-ofMaF_task-JogB_acq-EPIlowcov_run-0_bold_tstat.nii.gz,-1.7350800037384033,-1.4085854291915894,Legacy,Generic,4008_ofMaF_bold
31,EPIlowcov,4008,ofMaF,JogB,1,T2w+CBV,/home/chymera/.scratch/irsabi/l1/legacy_dsurqec/sub-4008/ses-ofMaF/sub-4008_ses-ofMaF_task-JogB_acq-EPIlowcov_run-1_cbv_tstat.nii.gz,1.5432010889053345,1.9229731559753418,Legacy,Generic,4008_ofMaF_cbv
32,EPIlowcov,4008,ofMcF1,JogB,0,T2w+BOLD,/home/chymera/.scratch/irsabi/l1/legacy_dsurqec/sub-4008/ses-ofMcF1/sub-4008_ses-ofMcF1_task-JogB_acq-EPIlowcov_run-0_bold_tstat.nii.gz,0.1615382432937622,-0.053885333240032196,Legacy,Generic,4008_ofMcF1_bold
33,EPIlowcov,4008,ofMcF1,JogB,1,T2w+CBV,/home/chymera/.scratch/irsabi/l1/legacy_dsurqec/sub-4008/ses-ofMcF1/sub-4008_ses-ofMcF1_task-JogB_acq-EPIlowcov_run-1_cbv_tstat.nii.gz,1.0345674753189087,1.1329150199890137,Legacy,Generic,4008_ofMcF1_cbv
34,EPIlowcov,4008,ofMcF2,JogB,0,T2w+BOLD,/home/chymera/.scratch/irsabi/l1/legacy_dsurqec/sub-4008/ses-ofMcF2/sub-4008_ses-ofMcF2_task-JogB_acq-EPIlowcov_run-0_bold_tstat.nii.gz,-4.125507354736328,-4.278905868530273,Legacy,Generic,4008_ofMcF2_bold
35,EPIlowcov,4008,ofMcF2,JogB,1,T2w+CBV,/home/chymera/.scratch/irsabi/l1/legacy_dsurqec/sub-4008/ses-ofMcF2/sub-4008_ses-ofMcF2_task-JogB_acq-EPIlowcov_run-1_cbv_tstat.nii.gz,3.9117743968963623,3.554565906524658,Legacy,Generic,4008_ofMcF2_cbv
36,EPIlowcov,4008,ofMpF,JogB,0,T2w+BOLD,/home/chymera/.scratch/irsabi/l1/legacy_dsurqec/sub-4008/ses-ofMpF/sub-4008_ses-ofMpF_task-JogB_acq-EPIlowcov_run-0_bold_tstat.nii.gz,1.147458791732788,0.9602369070053101,Legacy,Generic,4008_ofMpF_bold
37,EPIlowcov,4008,ofMpF,JogB,1,T2w+CBV,/home/chymera/.scratch/irsabi/l1/legacy_dsurqec/sub-4008/ses-ofMpF/sub-4008_ses-ofMpF_task-JogB_acq-EPIlowcov_run-1_cbv_tstat.nii.gz,1.022383689880371,1.1666144132614136,Legacy,Generic,4008_ofMpF_cbv
38,EPIlowcov,4009,ofM,JogB,0,T2w+BOLD,/home/chymera/.scratch/irsabi/l1/legacy_dsurqec/sub-4009/ses-ofM/sub-4009_ses-ofM_task-JogB_acq-EPIlowcov_run-0_bold_tstat.nii.gz,0.8993474841117859,0.7274248600006104,Legacy,Generic,4009_ofM_bold
39,EPIlowcov,4009,ofM,JogB,1,T2w+CBV,/home/chymera/.scratch/irsabi/l1/legacy_dsurqec/sub-4009/ses-ofM/sub-4009_ses-ofM_task-JogB_acq-EPIlowcov_run-1_cbv_tstat.nii.gz,2.9095523357391357,3.251567840576172,Legacy,Generic,4009_ofM_cbv
40,EPIlowcov,4009,ofMaF,JogB,0,T2w+BOLD,/home/chymera/.scratch/irsabi/l1/legacy_dsurqec/sub-4009/ses-ofMaF/sub-4009_ses-ofMaF_task-JogB_acq-EPIlowcov_run-0_bold_tstat.nii.gz,-0.21914109587669373,-0.5248884558677673,Legacy,Generic,4009_ofMaF_bold
41,EPIlowcov,4009,ofMaF,JogB,1,T2w+CBV,/home/chymera/.scratch/irsabi/l1/legacy_dsurqec/sub-4009/ses-ofMaF/sub-4009_ses-ofMaF_task-JogB_acq-EPIlowcov_run-1_cbv_tstat.nii.gz,-0.52495276927948,-0.2101057767868042,Legacy,Generic,4009_ofMaF_cbv
42,EPIlowcov,4009,ofMcF1,JogB,0,T2w+BOLD,/home/chymera/.scratch/irsabi/l1/legacy_dsurqec/sub-4009/ses-ofMcF1/sub-4009_ses-ofMcF1_task-JogB_acq-EPIlowcov_run-0_bold_tstat.nii.gz,-0.41688477993011475,-0.2886427640914917,Legacy,Generic,4009_ofMcF1_bold
43,EPIlowcov,4009,ofMcF1,JogB,1,T2w+CBV,/home/chymera/.scratch/irsabi/l1/legacy_dsurqec/sub-4009/ses-ofMcF1/sub-4009_ses-ofMcF1_task-JogB_acq-EPIlowcov_run-1_cbv_tstat.nii.gz,0.3482062816619873,0.8533287048339844,Legacy,Generic,4009_ofMcF1_cbv
44,EPIlowcov,4009,ofMcF2,JogB,0,T2w+BOLD,/home/chymera/.scratch/irsabi/l1/legacy_dsurqec/sub-4009/ses-ofMcF2/sub-4009_ses-ofMcF2_task-JogB_acq-EPIlowcov_run-0_bold_tstat.nii.gz,-5.7950873374938965,-5.969944477081299,Legacy,Generic,4009_ofMcF2_bold
45,EPIlowcov,4009,ofMcF2,JogB,1,T2w+CBV,/home/chymera/.scratch/irsabi/l1/legacy_dsurqec/sub-4009/ses-ofMcF2/sub-4009_ses-ofMcF2_task-JogB_acq-EPIlowcov_run-1_cbv_tstat.nii.gz,3.27158784866333,3.413628578186035,Legacy,Generic,4009_ofMcF2_cbv
46,EPIlowcov,4009,ofMpF,JogB,0,T2w+BOLD,/home/chymera/.scratch/irsabi/l1/legacy_dsurqec/sub-4009/ses-ofMpF/sub-4009_ses-ofMpF_task-JogB_acq-EPIlowcov_run-0_bold_tstat.nii.gz,-1.2426581382751465,-1.5564453601837158,Legacy,Generic,4009_ofMpF_bold
47,EPIlowcov,4009,ofMpF,JogB,1,T2w+CBV,/home/chymera/.scratch/irsabi/l1/legacy_dsurqec/sub-4009/ses-ofMpF/sub-4009_ses-ofMpF_task-JogB_acq-EPIlowcov_run-1_cbv_tstat.nii.gz,1.4431099891662598,1.1226677894592285,Legacy,Generic,4009_ofMpF_cbv
48,EPIlowcov,4011,ofM,JogB,0,T2w+BOLD,/home/chymera/.scratch/irsabi/l1/legacy_dsurqec/sub-4011/ses-ofM/sub-4011_ses-ofM_task-JogB_acq-EPIlowcov_run-0_bold_tstat.nii.gz,-2.980607271194458,-2.904982805252075,Legacy,Generic,4011_ofM_bold
49,EPIlowcov,4011,ofM,JogB,1,T2w+CBV,/home/chymera/.scratch/irsabi/l1/legacy_dsurqec/sub-4011/ses-ofM/sub-4011_ses-ofM_task-JogB_acq-EPIlowcov_run-1_cbv_tstat.nii.gz,2.9723734855651855,2.7973737716674805,Legacy,Generic,4011_ofM_cbv
50,EPIlowcov,4011,ofMaF,JogB,0,T2w+BOLD,/home/chymera/.scratch/irsabi/l1/legacy_dsurqec/sub-4011/ses-ofMaF/sub-4011_ses-ofMaF_task-JogB_acq-EPIlowcov_run-0_bold_tstat.nii.gz,-1.4602155685424805,-2.371755599975586,Legacy,Generic,4011_ofMaF_bold
51,EPIlowcov,4011,ofMaF,JogB,1,T2w+CBV,/home/chymera/.scratch/irsabi/l1/legacy_dsurqec/sub-4011/ses-ofMaF/sub-4011_ses-ofMaF_task-JogB_acq-EPIlowcov_run-1_cbv_tstat.nii.gz,1.1827260255813599,0.6420716643333435,Legacy,Generic,4011_ofMaF_cbv
52,EPIlowcov,4011,ofMcF1,JogB,0,T2w+BOLD,/home/chymera/.scratch/irsabi/l1/legacy_dsurqec/sub-4011/ses-ofMcF1/sub-4011_ses-ofMcF1_task-JogB_acq-EPIlowcov_run-0_bold_tstat.nii.gz,0.7211470007896423,-0.2161022424697876,Legacy,Generic,4011_ofMcF1_bold
53,EPIlowcov,4011,ofMcF1,JogB,1,T2w+CBV,/home/chymera/.scratch/irsabi/l1/legacy_dsurqec/sub-4011/ses-ofMcF1/sub-4011_ses-ofMcF1_task-JogB_acq-EPIlowcov_run-1_cbv_tstat.nii.gz,-1.0569112300872803,-1.231666922569275,Legacy,Generic,4011_ofMcF1_cbv
54,EPIlowcov,4011,ofMcF2,JogB,0,T2w+BOLD,/home/chymera/.scratch/irsabi/l1/legacy_dsurqec/sub-4011/ses-ofMcF2/sub-4011_ses-ofMcF2_task-JogB_acq-EPIlowcov_run-0_bold_tstat.nii.gz,-1.8063234090805054,-1.9334726333618164,Legacy,Generic,4011_ofMcF2_bold
55,EPIlowcov,4011,ofMcF2,JogB,1,T2w+CBV,/home/chymera/.scratch/irsabi/l1/legacy_dsurqec/sub-4011/ses-ofMcF2/sub-4011_ses-ofMcF2_task-JogB_acq-EPIlowcov_run-1_cbv_tstat.nii.gz,1.353749394416809,1.5774929523468018,Legacy,Generic,4011_ofMcF2_cbv
56,EPIlowcov,4012,ofM,JogB,0,T2w+BOLD,/home/chymera/.scratch/irsabi/l1/legacy_dsurqec/sub-4012/ses-ofM/sub-4012_ses-ofM_task-JogB_acq-EPIlowcov_run-0_bold_tstat.nii.gz,-0.6360835433006287,-0.596038818359375,Legacy,Generic,4012_ofM_bold
57,EPIlowcov,4012,ofM,JogB,1,T2w+CBV,/home/chymera/.scratch/irsabi/l1/legacy_dsurqec/sub-4012/ses-ofM/sub-4012_ses-ofM_task-JogB_acq-EPIlowcov_run-1_cbv_tstat.nii.gz,2.0660147666931152,2.177427291870117,Legacy,Generic,4012_ofM_cbv
58,EPIlowcov,4012,ofMaF,JogB,0,T2w+BOLD,/home/chymera/.scratch/irsabi/l1/legacy_dsurqec/sub-4012/ses-ofMaF/sub-4012_ses-ofMaF_task-JogB_acq-EPIlowcov_run-0_bold_tstat.nii.gz,2.9670016765594482,2.4659337997436523,Legacy,Generic,4012_ofMaF_bold
59,EPIlowcov,4012,ofMaF,JogB,1,T2w+CBV,/home/chymera/.scratch/irsabi/l1/legacy_dsurqec/sub-4012/ses-ofMaF/sub-4012_ses-ofMaF_task-JogB_acq-EPIlowcov_run-1_cbv_tstat.nii.gz,-0.16372737288475037,-0.1534421741962433,Legacy,Generic,4012_ofMaF_cbv
60,EPIlowcov,4012,ofMcF1,JogB,0,T2w+BOLD,/home/chymera/.scratch/irsabi/l1/legacy_dsurqec/sub-4012/ses-ofMcF1/sub-4012_ses-ofMcF1_task-JogB_acq-EPIlowcov_run-0_bold_tstat.nii.gz,-1.7684669494628906,-1.8418388366699219,Legacy,Generic,4012_ofMcF1_bold
61,EPIlowcov,4012,ofMcF1,JogB,1,T2w+CBV,/home/chymera/.scratch/irsabi/l1/legacy_dsurqec/sub-4012/ses-ofMcF1/sub-4012_ses-ofMcF1_task-JogB_acq-EPIlowcov_run-1_cbv_tstat.nii.gz,-0.03268558904528618,-0.10542865097522736,Legacy,Generic,4012_ofMcF1_cbv
62,EPIlowcov,4012,ofMcF2,JogB,0,T2w+BOLD,/home/chymera/.scratch/irsabi/l1/legacy_dsurqec/sub-4012/ses-ofMcF2/sub-4012_ses-ofMcF2_task-JogB_acq-EPIlowcov_run-0_bold_tstat.nii.gz,10.82857608795166,10.98341178894043,Legacy,Generic,4012_ofMcF2_bold
63,EPIlowcov,4012,ofMcF2,JogB,1,T2w+CBV,/home/chymera/.scratch/irsabi/l1/legacy_dsurqec/sub-4012/ses-ofMcF2/sub-4012_ses-ofMcF2_task-JogB_acq-EPIlowcov_run-1_cbv_tstat.nii.gz,-0.6901540756225586,-0.7579284906387329,Legacy,Generic,4012_ofMcF2_cbv
64,EPIlowcov,4012,ofMpF,JogB,0,T2w+BOLD,/home/chymera/.scratch/irsabi/l1/legacy_dsurqec/sub-4012/ses-ofMpF/sub-4012_ses-ofMpF_task-JogB_acq-EPIlowcov_run-0_bold_tstat.nii.gz,-0.5142378807067871,-0.4545513093471527,Legacy,Generic,4012_ofMpF_bold
65,EPIlowcov,4012,ofMpF,JogB,1,T2w+CBV,/home/chymera/.scratch/irsabi/l1/legacy_dsurqec/sub-4012/ses-ofMpF/sub-4012_ses-ofMpF_task-JogB_acq-EPIlowcov_run-1_cbv_tstat.nii.gz,3.517522096633911,3.756103277206421,Legacy,Generic,4012_ofMpF_cbv
66,EPIlowcov,4013,ofM,JogB,0,T2w+BOLD,/home/chymera/.scratch/irsabi/l1/legacy_dsurqec/sub-4013/ses-ofM/sub-4013_ses-ofM_task-JogB_acq-EPIlowcov_run-0_bold_tstat.nii.gz,-0.6342331171035767,-0.706104040145874,Legacy,Generic,4013_ofM_bold
67,EPIlowcov,4013,ofM,JogB,1,T2w+CBV,/home/chymera/.scratch/irsabi/l1/legacy_dsurqec/sub-4013/ses-ofM/sub-4013_ses-ofM_task-JogB_acq-EPIlowcov_run-1_cbv_tstat.nii.gz,-0.19315940141677856,-0.06239418312907219,Legacy,Generic,4013_ofM_cbv
